(['/home/kenny/git/Redid/Redid.py'],
 ['/home/kenny/git/Redid', '/usr/lib/python3.7', '/home/kenny/git/Redid'],
 ['codecs'],
 [],
 [],
 [],
 False,
 False,
 '3.7.0 (default, Sep 15 2018, 19:13:07) \n[GCC 8.2.1 20180831]',
 [('pyi_rth_multiprocessing',
   '/home/kenny/.local/lib/python3.7/site-packages/PyInstaller/loader/rthooks/pyi_rth_multiprocessing.py',
   'PYSOURCE'),
  ('pyi_rth_pkgres',
   '/home/kenny/.local/lib/python3.7/site-packages/PyInstaller/loader/rthooks/pyi_rth_pkgres.py',
   'PYSOURCE'),
  ('pyi_rth_qt5',
   '/home/kenny/.local/lib/python3.7/site-packages/PyInstaller/loader/rthooks/pyi_rth_qt5.py',
   'PYSOURCE'),
  ('Redid', '/home/kenny/git/Redid/Redid.py', 'PYSOURCE')],
 [('pkg_resources',
   '/usr/lib/python3.7/site-packages/pkg_resources/__init__.py',
   'PYMODULE'),
  ('sysconfig', '/usr/lib/python3.7/sysconfig.py', 'PYMODULE'),
  ('_sysconfigdata_m_linux_x86_64-linux-gnu',
   '/usr/lib/python3.7/_sysconfigdata_m_linux_x86_64-linux-gnu.py',
   'PYMODULE'),
  ('_osx_support', '/usr/lib/python3.7/_osx_support.py', 'PYMODULE'),
  ('distutils.log', '/usr/lib/python3.7/distutils/log.py', 'PYMODULE'),
  ('distutils', '/usr/lib/python3.7/distutils/__init__.py', 'PYMODULE'),
  ('distutils.archive_util',
   '/usr/lib/python3.7/distutils/archive_util.py',
   'PYMODULE'),
  ('distutils.dir_util',
   '/usr/lib/python3.7/distutils/dir_util.py',
   'PYMODULE'),
  ('distutils.file_util',
   '/usr/lib/python3.7/distutils/file_util.py',
   'PYMODULE'),
  ('distutils.dep_util',
   '/usr/lib/python3.7/distutils/dep_util.py',
   'PYMODULE'),
  ('distutils.spawn', '/usr/lib/python3.7/distutils/spawn.py', 'PYMODULE'),
  ('distutils.debug', '/usr/lib/python3.7/distutils/debug.py', 'PYMODULE'),
  ('distutils.errors', '/usr/lib/python3.7/distutils/errors.py', 'PYMODULE'),
  ('distutils.ccompiler',
   '/usr/lib/python3.7/distutils/ccompiler.py',
   'PYMODULE'),
  ('distutils.fancy_getopt',
   '/usr/lib/python3.7/distutils/fancy_getopt.py',
   'PYMODULE'),
  ('distutils.util', '/usr/lib/python3.7/distutils/util.py', 'PYMODULE'),
  ('distutils.filelist',
   '/usr/lib/python3.7/distutils/filelist.py',
   'PYMODULE'),
  ('lib2to3.refactor', '/usr/lib/python3.7/lib2to3/refactor.py', 'PYMODULE'),
  ('multiprocessing',
   '/usr/lib/python3.7/multiprocessing/__init__.py',
   'PYMODULE'),
  ('multiprocessing.spawn',
   '/usr/lib/python3.7/multiprocessing/spawn.py',
   'PYMODULE'),
  ('multiprocessing.semaphore_tracker',
   '/usr/lib/python3.7/multiprocessing/semaphore_tracker.py',
   'PYMODULE'),
  ('multiprocessing.pool',
   '/usr/lib/python3.7/multiprocessing/pool.py',
   'PYMODULE'),
  ('multiprocessing.dummy',
   '/usr/lib/python3.7/multiprocessing/dummy/__init__.py',
   'PYMODULE'),
  ('multiprocessing.dummy.connection',
   '/usr/lib/python3.7/multiprocessing/dummy/connection.py',
   'PYMODULE'),
  ('queue', '/usr/lib/python3.7/queue.py', 'PYMODULE'),
  ('multiprocessing.reduction',
   '/usr/lib/python3.7/multiprocessing/reduction.py',
   'PYMODULE'),
  ('multiprocessing.resource_sharer',
   '/usr/lib/python3.7/multiprocessing/resource_sharer.py',
   'PYMODULE'),
  ('multiprocessing.connection',
   '/usr/lib/python3.7/multiprocessing/connection.py',
   'PYMODULE'),
  ('xmlrpc.client', '/usr/lib/python3.7/xmlrpc/client.py', 'PYMODULE'),
  ('xmlrpc', '/usr/lib/python3.7/xmlrpc/__init__.py', 'PYMODULE'),
  ('decimal', '/usr/lib/python3.7/decimal.py', 'PYMODULE'),
  ('_pydecimal', '/usr/lib/python3.7/_pydecimal.py', 'PYMODULE'),
  ('contextvars', '/usr/lib/python3.7/contextvars.py', 'PYMODULE'),
  ('numbers', '/usr/lib/python3.7/numbers.py', 'PYMODULE'),
  ('hmac', '/usr/lib/python3.7/hmac.py', 'PYMODULE'),
  ('multiprocessing.context',
   '/usr/lib/python3.7/multiprocessing/context.py',
   'PYMODULE'),
  ('multiprocessing.popen_spawn_win32',
   '/usr/lib/python3.7/multiprocessing/popen_spawn_win32.py',
   'PYMODULE'),
  ('multiprocessing.popen_forkserver',
   '/usr/lib/python3.7/multiprocessing/popen_forkserver.py',
   'PYMODULE'),
  ('multiprocessing.popen_spawn_posix',
   '/usr/lib/python3.7/multiprocessing/popen_spawn_posix.py',
   'PYMODULE'),
  ('multiprocessing.popen_fork',
   '/usr/lib/python3.7/multiprocessing/popen_fork.py',
   'PYMODULE'),
  ('multiprocessing.forkserver',
   '/usr/lib/python3.7/multiprocessing/forkserver.py',
   'PYMODULE'),
  ('multiprocessing.sharedctypes',
   '/usr/lib/python3.7/multiprocessing/sharedctypes.py',
   'PYMODULE'),
  ('multiprocessing.heap',
   '/usr/lib/python3.7/multiprocessing/heap.py',
   'PYMODULE'),
  ('ctypes', '/usr/lib/python3.7/ctypes/__init__.py', 'PYMODULE'),
  ('ctypes._endian', '/usr/lib/python3.7/ctypes/_endian.py', 'PYMODULE'),
  ('multiprocessing.queues',
   '/usr/lib/python3.7/multiprocessing/queues.py',
   'PYMODULE'),
  ('multiprocessing.synchronize',
   '/usr/lib/python3.7/multiprocessing/synchronize.py',
   'PYMODULE'),
  ('multiprocessing.managers',
   '/usr/lib/python3.7/multiprocessing/managers.py',
   'PYMODULE'),
  ('multiprocessing.util',
   '/usr/lib/python3.7/multiprocessing/util.py',
   'PYMODULE'),
  ('multiprocessing.process',
   '/usr/lib/python3.7/multiprocessing/process.py',
   'PYMODULE'),
  ('lib2to3.btm_matcher',
   '/usr/lib/python3.7/lib2to3/btm_matcher.py',
   'PYMODULE'),
  ('lib2to3.btm_utils', '/usr/lib/python3.7/lib2to3/btm_utils.py', 'PYMODULE'),
  ('lib2to3.pgen2.grammar',
   '/usr/lib/python3.7/lib2to3/pgen2/grammar.py',
   'PYMODULE'),
  ('lib2to3.pygram', '/usr/lib/python3.7/lib2to3/pygram.py', 'PYMODULE'),
  ('lib2to3.pytree', '/usr/lib/python3.7/lib2to3/pytree.py', 'PYMODULE'),
  ('lib2to3', '/usr/lib/python3.7/lib2to3/__init__.py', 'PYMODULE'),
  ('lib2to3.patcomp', '/usr/lib/python3.7/lib2to3/patcomp.py', 'PYMODULE'),
  ('lib2to3.pgen2.parse',
   '/usr/lib/python3.7/lib2to3/pgen2/parse.py',
   'PYMODULE'),
  ('lib2to3.pgen2.literals',
   '/usr/lib/python3.7/lib2to3/pgen2/literals.py',
   'PYMODULE'),
  ('lib2to3.fixer_util',
   '/usr/lib/python3.7/lib2to3/fixer_util.py',
   'PYMODULE'),
  ('lib2to3.pgen2.token',
   '/usr/lib/python3.7/lib2to3/pgen2/token.py',
   'PYMODULE'),
  ('lib2to3.pgen2.tokenize',
   '/usr/lib/python3.7/lib2to3/pgen2/tokenize.py',
   'PYMODULE'),
  ('lib2to3.pgen2.driver',
   '/usr/lib/python3.7/lib2to3/pgen2/driver.py',
   'PYMODULE'),
  ('lib2to3.pgen2.pgen',
   '/usr/lib/python3.7/lib2to3/pgen2/pgen.py',
   'PYMODULE'),
  ('lib2to3.pgen2', '/usr/lib/python3.7/lib2to3/pgen2/__init__.py', 'PYMODULE'),
  ('distutils.sysconfig',
   '/usr/lib/python3.7/distutils/sysconfig.py',
   'PYMODULE'),
  ('distutils.text_file',
   '/usr/lib/python3.7/distutils/text_file.py',
   'PYMODULE'),
  ('packaging',
   '/usr/lib/python3.7/site-packages/packaging/__init__.py',
   'PYMODULE'),
  ('packaging.__about__',
   '/usr/lib/python3.7/site-packages/packaging/__about__.py',
   'PYMODULE'),
  ('appdirs', '/usr/lib/python3.7/site-packages/appdirs.py', 'PYMODULE'),
  ('pkg_resources.py31compat',
   '/usr/lib/python3.7/site-packages/pkg_resources/py31compat.py',
   'PYMODULE'),
  ('configparser', '/usr/lib/python3.7/configparser.py', 'PYMODULE'),
  ('html.parser', '/usr/lib/python3.7/html/parser.py', 'PYMODULE'),
  ('_markupbase', '/usr/lib/python3.7/_markupbase.py', 'PYMODULE'),
  ('six', '/usr/lib/python3.7/site-packages/six.py', 'PYMODULE'),
  ('imp', '/usr/lib/python3.7/imp.py', 'PYMODULE'),
  ('posixpath', '/usr/lib/python3.7/posixpath.py', 'PYMODULE'),
  ('_strptime', '/usr/lib/python3.7/_strptime.py', 'PYMODULE'),
  ('datetime', '/usr/lib/python3.7/datetime.py', 'PYMODULE'),
  ('typing', '/usr/lib/python3.7/typing.py', 'PYMODULE'),
  ('fnmatch', '/usr/lib/python3.7/fnmatch.py', 'PYMODULE'),
  ('_compat_pickle', '/usr/lib/python3.7/_compat_pickle.py', 'PYMODULE'),
  ('__future__', '/usr/lib/python3.7/__future__.py', 'PYMODULE'),
  ('difflib', '/usr/lib/python3.7/difflib.py', 'PYMODULE'),
  ('ast', '/usr/lib/python3.7/ast.py', 'PYMODULE'),
  ('inspect', '/usr/lib/python3.7/inspect.py', 'PYMODULE'),
  ('cmd', '/usr/lib/python3.7/cmd.py', 'PYMODULE'),
  ('bdb', '/usr/lib/python3.7/bdb.py', 'PYMODULE'),
  ('opcode', '/usr/lib/python3.7/opcode.py', 'PYMODULE'),
  ('dis', '/usr/lib/python3.7/dis.py', 'PYMODULE'),
  ('codeop', '/usr/lib/python3.7/codeop.py', 'PYMODULE'),
  ('code', '/usr/lib/python3.7/code.py', 'PYMODULE'),
  ('glob', '/usr/lib/python3.7/glob.py', 'PYMODULE'),
  ('shlex', '/usr/lib/python3.7/shlex.py', 'PYMODULE'),
  ('runpy', '/usr/lib/python3.7/runpy.py', 'PYMODULE'),
  ('importlib._bootstrap',
   '/usr/lib/python3.7/importlib/_bootstrap.py',
   'PYMODULE'),
  ('importlib._bootstrap_external',
   '/usr/lib/python3.7/importlib/_bootstrap_external.py',
   'PYMODULE'),
  ('importlib.machinery',
   '/usr/lib/python3.7/importlib/machinery.py',
   'PYMODULE'),
  ('importlib.util', '/usr/lib/python3.7/importlib/util.py', 'PYMODULE'),
  ('importlib.abc', '/usr/lib/python3.7/importlib/abc.py', 'PYMODULE'),
  ('importlib', '/usr/lib/python3.7/importlib/__init__.py', 'PYMODULE'),
  ('pkgutil', '/usr/lib/python3.7/pkgutil.py', 'PYMODULE'),
  ('xml', '/usr/lib/python3.7/xml/__init__.py', 'PYMODULE'),
  ('xml.sax.expatreader',
   '/usr/lib/python3.7/xml/sax/expatreader.py',
   'PYMODULE'),
  ('xml.sax.saxutils', '/usr/lib/python3.7/xml/sax/saxutils.py', 'PYMODULE'),
  ('urllib.request', '/usr/lib/python3.7/urllib/request.py', 'PYMODULE'),
  ('getpass', '/usr/lib/python3.7/getpass.py', 'PYMODULE'),
  ('nturl2path', '/usr/lib/python3.7/nturl2path.py', 'PYMODULE'),
  ('ftplib', '/usr/lib/python3.7/ftplib.py', 'PYMODULE'),
  ('netrc', '/usr/lib/python3.7/netrc.py', 'PYMODULE'),
  ('http.cookiejar', '/usr/lib/python3.7/http/cookiejar.py', 'PYMODULE'),
  ('urllib.response', '/usr/lib/python3.7/urllib/response.py', 'PYMODULE'),
  ('urllib.error', '/usr/lib/python3.7/urllib/error.py', 'PYMODULE'),
  ('xml.sax', '/usr/lib/python3.7/xml/sax/__init__.py', 'PYMODULE'),
  ('xml.sax.handler', '/usr/lib/python3.7/xml/sax/handler.py', 'PYMODULE'),
  ('xml.sax._exceptions',
   '/usr/lib/python3.7/xml/sax/_exceptions.py',
   'PYMODULE'),
  ('xml.sax.xmlreader', '/usr/lib/python3.7/xml/sax/xmlreader.py', 'PYMODULE'),
  ('xml.parsers', '/usr/lib/python3.7/xml/parsers/__init__.py', 'PYMODULE'),
  ('xml.parsers.expat', '/usr/lib/python3.7/xml/parsers/expat.py', 'PYMODULE'),
  ('plistlib', '/usr/lib/python3.7/plistlib.py', 'PYMODULE'),
  ('platform', '/usr/lib/python3.7/platform.py', 'PYMODULE'),
  ('urllib.parse', '/usr/lib/python3.7/urllib/parse.py', 'PYMODULE'),
  ('tempfile', '/usr/lib/python3.7/tempfile.py', 'PYMODULE'),
  ('tty', '/usr/lib/python3.7/tty.py', 'PYMODULE'),
  ('pydoc_data', '/usr/lib/python3.7/pydoc_data/__init__.py', 'PYMODULE'),
  ('pydoc_data.topics', '/usr/lib/python3.7/pydoc_data/topics.py', 'PYMODULE'),
  ('html.entities', '/usr/lib/python3.7/html/entities.py', 'PYMODULE'),
  ('html', '/usr/lib/python3.7/html/__init__.py', 'PYMODULE'),
  ('ssl', '/usr/lib/python3.7/ssl.py', 'PYMODULE'),
  ('http.client', '/usr/lib/python3.7/http/client.py', 'PYMODULE'),
  ('mimetypes', '/usr/lib/python3.7/mimetypes.py', 'PYMODULE'),
  ('socketserver', '/usr/lib/python3.7/socketserver.py', 'PYMODULE'),
  ('http', '/usr/lib/python3.7/http/__init__.py', 'PYMODULE'),
  ('http.server', '/usr/lib/python3.7/http/server.py', 'PYMODULE'),
  ('optparse', '/usr/lib/python3.7/optparse.py', 'PYMODULE'),
  ('uu', '/usr/lib/python3.7/uu.py', 'PYMODULE'),
  ('email.feedparser', '/usr/lib/python3.7/email/feedparser.py', 'PYMODULE'),
  ('email.parser', '/usr/lib/python3.7/email/parser.py', 'PYMODULE'),
  ('email', '/usr/lib/python3.7/email/__init__.py', 'PYMODULE'),
  ('calendar', '/usr/lib/python3.7/calendar.py', 'PYMODULE'),
  ('email._parseaddr', '/usr/lib/python3.7/email/_parseaddr.py', 'PYMODULE'),
  ('email.utils', '/usr/lib/python3.7/email/utils.py', 'PYMODULE'),
  ('email.errors', '/usr/lib/python3.7/email/errors.py', 'PYMODULE'),
  ('email.header', '/usr/lib/python3.7/email/header.py', 'PYMODULE'),
  ('email._policybase', '/usr/lib/python3.7/email/_policybase.py', 'PYMODULE'),
  ('email.base64mime', '/usr/lib/python3.7/email/base64mime.py', 'PYMODULE'),
  ('email.encoders', '/usr/lib/python3.7/email/encoders.py', 'PYMODULE'),
  ('email.charset', '/usr/lib/python3.7/email/charset.py', 'PYMODULE'),
  ('email._encoded_words',
   '/usr/lib/python3.7/email/_encoded_words.py',
   'PYMODULE'),
  ('hashlib', '/usr/lib/python3.7/hashlib.py', 'PYMODULE'),
  ('bisect', '/usr/lib/python3.7/bisect.py', 'PYMODULE'),
  ('random', '/usr/lib/python3.7/random.py', 'PYMODULE'),
  ('email.generator', '/usr/lib/python3.7/email/generator.py', 'PYMODULE'),
  ('email.iterators', '/usr/lib/python3.7/email/iterators.py', 'PYMODULE'),
  ('urllib', '/usr/lib/python3.7/urllib/__init__.py', 'PYMODULE'),
  ('email._header_value_parser',
   '/usr/lib/python3.7/email/_header_value_parser.py',
   'PYMODULE'),
  ('email.headerregistry',
   '/usr/lib/python3.7/email/headerregistry.py',
   'PYMODULE'),
  ('email.quoprimime', '/usr/lib/python3.7/email/quoprimime.py', 'PYMODULE'),
  ('email.contentmanager',
   '/usr/lib/python3.7/email/contentmanager.py',
   'PYMODULE'),
  ('email.policy', '/usr/lib/python3.7/email/policy.py', 'PYMODULE'),
  ('email.message', '/usr/lib/python3.7/email/message.py', 'PYMODULE'),
  ('lzma', '/usr/lib/python3.7/lzma.py', 'PYMODULE'),
  ('gzip', '/usr/lib/python3.7/gzip.py', 'PYMODULE'),
  ('tarfile', '/usr/lib/python3.7/tarfile.py', 'PYMODULE'),
  ('py_compile', '/usr/lib/python3.7/py_compile.py', 'PYMODULE'),
  ('zipfile', '/usr/lib/python3.7/zipfile.py', 'PYMODULE'),
  ('shutil', '/usr/lib/python3.7/shutil.py', 'PYMODULE'),
  ('webbrowser', '/usr/lib/python3.7/webbrowser.py', 'PYMODULE'),
  ('pydoc', '/usr/lib/python3.7/pydoc.py', 'PYMODULE'),
  ('pdb', '/usr/lib/python3.7/pdb.py', 'PYMODULE'),
  ('unittest.util', '/usr/lib/python3.7/unittest/util.py', 'PYMODULE'),
  ('unittest.result', '/usr/lib/python3.7/unittest/result.py', 'PYMODULE'),
  ('logging', '/usr/lib/python3.7/logging/__init__.py', 'PYMODULE'),
  ('unittest.case', '/usr/lib/python3.7/unittest/case.py', 'PYMODULE'),
  ('unittest.suite', '/usr/lib/python3.7/unittest/suite.py', 'PYMODULE'),
  ('unittest.loader', '/usr/lib/python3.7/unittest/loader.py', 'PYMODULE'),
  ('unittest.runner', '/usr/lib/python3.7/unittest/runner.py', 'PYMODULE'),
  ('unittest.main', '/usr/lib/python3.7/unittest/main.py', 'PYMODULE'),
  ('unittest.signals', '/usr/lib/python3.7/unittest/signals.py', 'PYMODULE'),
  ('unittest', '/usr/lib/python3.7/unittest/__init__.py', 'PYMODULE'),
  ('doctest', '/usr/lib/python3.7/doctest.py', 'PYMODULE'),
  ('pprint', '/usr/lib/python3.7/pprint.py', 'PYMODULE'),
  ('tracemalloc', '/usr/lib/python3.7/tracemalloc.py', 'PYMODULE'),
  ('quopri', '/usr/lib/python3.7/quopri.py', 'PYMODULE'),
  ('getopt', '/usr/lib/python3.7/getopt.py', 'PYMODULE'),
  ('base64', '/usr/lib/python3.7/base64.py', 'PYMODULE'),
  ('_compression', '/usr/lib/python3.7/_compression.py', 'PYMODULE'),
  ('bz2', '/usr/lib/python3.7/bz2.py', 'PYMODULE'),
  ('stringprep', '/usr/lib/python3.7/stringprep.py', 'PYMODULE'),
  ('_py_abc', '/usr/lib/python3.7/_py_abc.py', 'PYMODULE'),
  ('stat', '/usr/lib/python3.7/stat.py', 'PYMODULE'),
  ('genericpath', '/usr/lib/python3.7/genericpath.py', 'PYMODULE'),
  ('string', '/usr/lib/python3.7/string.py', 'PYMODULE'),
  ('ntpath', '/usr/lib/python3.7/ntpath.py', 'PYMODULE'),
  ('signal', '/usr/lib/python3.7/signal.py', 'PYMODULE'),
  ('contextlib', '/usr/lib/python3.7/contextlib.py', 'PYMODULE'),
  ('_threading_local', '/usr/lib/python3.7/_threading_local.py', 'PYMODULE'),
  ('selectors', '/usr/lib/python3.7/selectors.py', 'PYMODULE'),
  ('subprocess', '/usr/lib/python3.7/subprocess.py', 'PYMODULE'),
  ('token', '/usr/lib/python3.7/token.py', 'PYMODULE'),
  ('struct', '/usr/lib/python3.7/struct.py', 'PYMODULE'),
  ('gettext', '/usr/lib/python3.7/gettext.py', 'PYMODULE'),
  ('copy', '/usr/lib/python3.7/copy.py', 'PYMODULE'),
  ('textwrap', '/usr/lib/python3.7/textwrap.py', 'PYMODULE'),
  ('argparse', '/usr/lib/python3.7/argparse.py', 'PYMODULE'),
  ('tokenize', '/usr/lib/python3.7/tokenize.py', 'PYMODULE'),
  ('threading', '/usr/lib/python3.7/threading.py', 'PYMODULE'),
  ('requests.auth',
   '/usr/lib/python3.7/site-packages/requests/auth.py',
   'PYMODULE'),
  ('requests.utils',
   '/usr/lib/python3.7/site-packages/requests/utils.py',
   'PYMODULE'),
  ('requests.exceptions',
   '/usr/lib/python3.7/site-packages/requests/exceptions.py',
   'PYMODULE'),
  ('urllib3.exceptions',
   '/usr/lib/python3.7/site-packages/urllib3/exceptions.py',
   'PYMODULE'),
  ('urllib3',
   '/usr/lib/python3.7/site-packages/urllib3/__init__.py',
   'PYMODULE'),
  ('urllib3.util.retry',
   '/usr/lib/python3.7/site-packages/urllib3/util/retry.py',
   'PYMODULE'),
  ('urllib3.util',
   '/usr/lib/python3.7/site-packages/urllib3/util/__init__.py',
   'PYMODULE'),
  ('urllib3.util.wait',
   '/usr/lib/python3.7/site-packages/urllib3/util/wait.py',
   'PYMODULE'),
  ('urllib3.util.ssl_',
   '/usr/lib/python3.7/site-packages/urllib3/util/ssl_.py',
   'PYMODULE'),
  ('ipaddress', '/usr/lib/python3.7/ipaddress.py', 'PYMODULE'),
  ('urllib3.util.response',
   '/usr/lib/python3.7/site-packages/urllib3/util/response.py',
   'PYMODULE'),
  ('urllib3.util.connection',
   '/usr/lib/python3.7/site-packages/urllib3/util/connection.py',
   'PYMODULE'),
  ('urllib3.packages.six',
   '/usr/lib/python3.7/site-packages/urllib3/packages/six.py',
   'PYMODULE'),
  ('urllib3.packages',
   '/usr/lib/python3.7/site-packages/urllib3/packages/__init__.py',
   'PYMODULE'),
  ('urllib3.packages.ssl_match_hostname',
   '/usr/lib/python3.7/site-packages/urllib3/packages/ssl_match_hostname/__init__.py',
   'PYMODULE'),
  ('urllib3.packages.ssl_match_hostname._implementation',
   '/usr/lib/python3.7/site-packages/urllib3/packages/ssl_match_hostname/_implementation.py',
   'PYMODULE'),
  ('urllib3.util.timeout',
   '/usr/lib/python3.7/site-packages/urllib3/util/timeout.py',
   'PYMODULE'),
  ('urllib3.util.url',
   '/usr/lib/python3.7/site-packages/urllib3/util/url.py',
   'PYMODULE'),
  ('urllib3.util.request',
   '/usr/lib/python3.7/site-packages/urllib3/util/request.py',
   'PYMODULE'),
  ('urllib3.response',
   '/usr/lib/python3.7/site-packages/urllib3/response.py',
   'PYMODULE'),
  ('urllib3.connection',
   '/usr/lib/python3.7/site-packages/urllib3/connection.py',
   'PYMODULE'),
  ('urllib3._collections',
   '/usr/lib/python3.7/site-packages/urllib3/_collections.py',
   'PYMODULE'),
  ('urllib3.packages.ordered_dict',
   '/usr/lib/python3.7/site-packages/urllib3/packages/ordered_dict.py',
   'PYMODULE'),
  ('urllib3.poolmanager',
   '/usr/lib/python3.7/site-packages/urllib3/poolmanager.py',
   'PYMODULE'),
  ('urllib3.request',
   '/usr/lib/python3.7/site-packages/urllib3/request.py',
   'PYMODULE'),
  ('urllib3.filepost',
   '/usr/lib/python3.7/site-packages/urllib3/filepost.py',
   'PYMODULE'),
  ('urllib3.fields',
   '/usr/lib/python3.7/site-packages/urllib3/fields.py',
   'PYMODULE'),
  ('urllib3.connectionpool',
   '/usr/lib/python3.7/site-packages/urllib3/connectionpool.py',
   'PYMODULE'),
  ('urllib3.util.queue',
   '/usr/lib/python3.7/site-packages/urllib3/util/queue.py',
   'PYMODULE'),
  ('requests.structures',
   '/usr/lib/python3.7/site-packages/requests/structures.py',
   'PYMODULE'),
  ('requests.certs',
   '/usr/lib/python3.7/site-packages/requests/certs.py',
   'PYMODULE'),
  ('requests.__version__',
   '/usr/lib/python3.7/site-packages/requests/__version__.py',
   'PYMODULE'),
  ('requests._internal_utils',
   '/usr/lib/python3.7/site-packages/requests/_internal_utils.py',
   'PYMODULE'),
  ('requests.cookies',
   '/usr/lib/python3.7/site-packages/requests/cookies.py',
   'PYMODULE'),
  ('dummy_threading', '/usr/lib/python3.7/dummy_threading.py', 'PYMODULE'),
  ('_dummy_thread', '/usr/lib/python3.7/_dummy_thread.py', 'PYMODULE'),
  ('requests.compat',
   '/usr/lib/python3.7/site-packages/requests/compat.py',
   'PYMODULE'),
  ('http.cookies', '/usr/lib/python3.7/http/cookies.py', 'PYMODULE'),
  ('json', '/usr/lib/python3.7/json/__init__.py', 'PYMODULE'),
  ('json.encoder', '/usr/lib/python3.7/json/encoder.py', 'PYMODULE'),
  ('json.decoder', '/usr/lib/python3.7/json/decoder.py', 'PYMODULE'),
  ('json.scanner', '/usr/lib/python3.7/json/scanner.py', 'PYMODULE'),
  ('chardet',
   '/usr/lib/python3.7/site-packages/chardet/__init__.py',
   'PYMODULE'),
  ('chardet.version',
   '/usr/lib/python3.7/site-packages/chardet/version.py',
   'PYMODULE'),
  ('chardet.universaldetector',
   '/usr/lib/python3.7/site-packages/chardet/universaldetector.py',
   'PYMODULE'),
  ('chardet.sbcsgroupprober',
   '/usr/lib/python3.7/site-packages/chardet/sbcsgroupprober.py',
   'PYMODULE'),
  ('chardet.langturkishmodel',
   '/usr/lib/python3.7/site-packages/chardet/langturkishmodel.py',
   'PYMODULE'),
  ('chardet.hebrewprober',
   '/usr/lib/python3.7/site-packages/chardet/hebrewprober.py',
   'PYMODULE'),
  ('chardet.charsetprober',
   '/usr/lib/python3.7/site-packages/chardet/charsetprober.py',
   'PYMODULE'),
  ('chardet.langhebrewmodel',
   '/usr/lib/python3.7/site-packages/chardet/langhebrewmodel.py',
   'PYMODULE'),
  ('chardet.langthaimodel',
   '/usr/lib/python3.7/site-packages/chardet/langthaimodel.py',
   'PYMODULE'),
  ('chardet.langbulgarianmodel',
   '/usr/lib/python3.7/site-packages/chardet/langbulgarianmodel.py',
   'PYMODULE'),
  ('chardet.langgreekmodel',
   '/usr/lib/python3.7/site-packages/chardet/langgreekmodel.py',
   'PYMODULE'),
  ('chardet.langcyrillicmodel',
   '/usr/lib/python3.7/site-packages/chardet/langcyrillicmodel.py',
   'PYMODULE'),
  ('chardet.sbcharsetprober',
   '/usr/lib/python3.7/site-packages/chardet/sbcharsetprober.py',
   'PYMODULE'),
  ('chardet.mbcsgroupprober',
   '/usr/lib/python3.7/site-packages/chardet/mbcsgroupprober.py',
   'PYMODULE'),
  ('chardet.euctwprober',
   '/usr/lib/python3.7/site-packages/chardet/euctwprober.py',
   'PYMODULE'),
  ('chardet.mbcssm',
   '/usr/lib/python3.7/site-packages/chardet/mbcssm.py',
   'PYMODULE'),
  ('chardet.chardistribution',
   '/usr/lib/python3.7/site-packages/chardet/chardistribution.py',
   'PYMODULE'),
  ('chardet.jisfreq',
   '/usr/lib/python3.7/site-packages/chardet/jisfreq.py',
   'PYMODULE'),
  ('chardet.big5freq',
   '/usr/lib/python3.7/site-packages/chardet/big5freq.py',
   'PYMODULE'),
  ('chardet.gb2312freq',
   '/usr/lib/python3.7/site-packages/chardet/gb2312freq.py',
   'PYMODULE'),
  ('chardet.euckrfreq',
   '/usr/lib/python3.7/site-packages/chardet/euckrfreq.py',
   'PYMODULE'),
  ('chardet.euctwfreq',
   '/usr/lib/python3.7/site-packages/chardet/euctwfreq.py',
   'PYMODULE'),
  ('chardet.codingstatemachine',
   '/usr/lib/python3.7/site-packages/chardet/codingstatemachine.py',
   'PYMODULE'),
  ('chardet.mbcharsetprober',
   '/usr/lib/python3.7/site-packages/chardet/mbcharsetprober.py',
   'PYMODULE'),
  ('chardet.big5prober',
   '/usr/lib/python3.7/site-packages/chardet/big5prober.py',
   'PYMODULE'),
  ('chardet.cp949prober',
   '/usr/lib/python3.7/site-packages/chardet/cp949prober.py',
   'PYMODULE'),
  ('chardet.euckrprober',
   '/usr/lib/python3.7/site-packages/chardet/euckrprober.py',
   'PYMODULE'),
  ('chardet.gb2312prober',
   '/usr/lib/python3.7/site-packages/chardet/gb2312prober.py',
   'PYMODULE'),
  ('chardet.eucjpprober',
   '/usr/lib/python3.7/site-packages/chardet/eucjpprober.py',
   'PYMODULE'),
  ('chardet.jpcntx',
   '/usr/lib/python3.7/site-packages/chardet/jpcntx.py',
   'PYMODULE'),
  ('chardet.sjisprober',
   '/usr/lib/python3.7/site-packages/chardet/sjisprober.py',
   'PYMODULE'),
  ('chardet.utf8prober',
   '/usr/lib/python3.7/site-packages/chardet/utf8prober.py',
   'PYMODULE'),
  ('chardet.latin1prober',
   '/usr/lib/python3.7/site-packages/chardet/latin1prober.py',
   'PYMODULE'),
  ('chardet.escprober',
   '/usr/lib/python3.7/site-packages/chardet/escprober.py',
   'PYMODULE'),
  ('chardet.escsm',
   '/usr/lib/python3.7/site-packages/chardet/escsm.py',
   'PYMODULE'),
  ('chardet.enums',
   '/usr/lib/python3.7/site-packages/chardet/enums.py',
   'PYMODULE'),
  ('chardet.charsetgroupprober',
   '/usr/lib/python3.7/site-packages/chardet/charsetgroupprober.py',
   'PYMODULE'),
  ('chardet.compat',
   '/usr/lib/python3.7/site-packages/chardet/compat.py',
   'PYMODULE'),
  ('socket', '/usr/lib/python3.7/socket.py', 'PYMODULE'),
  ('pickle', '/usr/lib/python3.7/pickle.py', 'PYMODULE'),
  ('requests',
   '/usr/lib/python3.7/site-packages/requests/__init__.py',
   'PYMODULE'),
  ('requests.status_codes',
   '/usr/lib/python3.7/site-packages/requests/status_codes.py',
   'PYMODULE'),
  ('requests.api',
   '/usr/lib/python3.7/site-packages/requests/api.py',
   'PYMODULE'),
  ('requests.sessions',
   '/usr/lib/python3.7/site-packages/requests/sessions.py',
   'PYMODULE'),
  ('requests.adapters',
   '/usr/lib/python3.7/site-packages/requests/adapters.py',
   'PYMODULE'),
  ('urllib3.contrib.socks',
   '/usr/lib/python3.7/site-packages/urllib3/contrib/socks.py',
   'PYMODULE'),
  ('requests.hooks',
   '/usr/lib/python3.7/site-packages/requests/hooks.py',
   'PYMODULE'),
  ('requests.models',
   '/usr/lib/python3.7/site-packages/requests/models.py',
   'PYMODULE'),
  ('idna', '/usr/lib/python3.7/site-packages/idna/__init__.py', 'PYMODULE'),
  ('idna.core', '/usr/lib/python3.7/site-packages/idna/core.py', 'PYMODULE'),
  ('idna.uts46data',
   '/usr/lib/python3.7/site-packages/idna/uts46data.py',
   'PYMODULE'),
  ('idna.intranges',
   '/usr/lib/python3.7/site-packages/idna/intranges.py',
   'PYMODULE'),
  ('idna.idnadata',
   '/usr/lib/python3.7/site-packages/idna/idnadata.py',
   'PYMODULE'),
  ('idna.package_data',
   '/usr/lib/python3.7/site-packages/idna/package_data.py',
   'PYMODULE'),
  ('requests.packages',
   '/usr/lib/python3.7/site-packages/requests/packages.py',
   'PYMODULE'),
  ('urllib3.contrib.pyopenssl',
   '/usr/lib/python3.7/site-packages/urllib3/contrib/pyopenssl.py',
   'PYMODULE'),
  ('urllib3.packages.backports.makefile',
   '/usr/lib/python3.7/site-packages/urllib3/packages/backports/makefile.py',
   'PYMODULE'),
  ('urllib3.packages.backports',
   '/usr/lib/python3.7/site-packages/urllib3/packages/backports/__init__.py',
   'PYMODULE'),
  ('urllib3.contrib',
   '/usr/lib/python3.7/site-packages/urllib3/contrib/__init__.py',
   'PYMODULE'),
  ('PIL.ImageQt',
   '/usr/lib/python3.7/site-packages/PIL/ImageQt.py',
   'PYMODULE'),
  ('PIL._util', '/usr/lib/python3.7/site-packages/PIL/_util.py', 'PYMODULE'),
  ('PIL.Image', '/usr/lib/python3.7/site-packages/PIL/Image.py', 'PYMODULE'),
  ('PIL.DcxImagePlugin',
   '/usr/lib/python3.7/site-packages/PIL/DcxImagePlugin.py',
   'PYMODULE'),
  ('PIL.SpiderImagePlugin',
   '/usr/lib/python3.7/site-packages/PIL/SpiderImagePlugin.py',
   'PYMODULE'),
  ('PIL.ImageTk',
   '/usr/lib/python3.7/site-packages/PIL/ImageTk.py',
   'PYMODULE'),
  ('PIL.ImageFile',
   '/usr/lib/python3.7/site-packages/PIL/ImageFile.py',
   'PYMODULE'),
  ('PIL.FpxImagePlugin',
   '/usr/lib/python3.7/site-packages/PIL/FpxImagePlugin.py',
   'PYMODULE'),
  ('PIL.BufrStubImagePlugin',
   '/usr/lib/python3.7/site-packages/PIL/BufrStubImagePlugin.py',
   'PYMODULE'),
  ('PIL.IcoImagePlugin',
   '/usr/lib/python3.7/site-packages/PIL/IcoImagePlugin.py',
   'PYMODULE'),
  ('PIL.PdfImagePlugin',
   '/usr/lib/python3.7/site-packages/PIL/PdfImagePlugin.py',
   'PYMODULE'),
  ('PIL.PdfParser',
   '/usr/lib/python3.7/site-packages/PIL/PdfParser.py',
   'PYMODULE'),
  ('PIL.ImageSequence',
   '/usr/lib/python3.7/site-packages/PIL/ImageSequence.py',
   'PYMODULE'),
  ('PIL.EpsImagePlugin',
   '/usr/lib/python3.7/site-packages/PIL/EpsImagePlugin.py',
   'PYMODULE'),
  ('PIL.GbrImagePlugin',
   '/usr/lib/python3.7/site-packages/PIL/GbrImagePlugin.py',
   'PYMODULE'),
  ('PIL.MspImagePlugin',
   '/usr/lib/python3.7/site-packages/PIL/MspImagePlugin.py',
   'PYMODULE'),
  ('PIL.SunImagePlugin',
   '/usr/lib/python3.7/site-packages/PIL/SunImagePlugin.py',
   'PYMODULE'),
  ('PIL.ImtImagePlugin',
   '/usr/lib/python3.7/site-packages/PIL/ImtImagePlugin.py',
   'PYMODULE'),
  ('PIL.Hdf5StubImagePlugin',
   '/usr/lib/python3.7/site-packages/PIL/Hdf5StubImagePlugin.py',
   'PYMODULE'),
  ('PIL.PalmImagePlugin',
   '/usr/lib/python3.7/site-packages/PIL/PalmImagePlugin.py',
   'PYMODULE'),
  ('PIL.WebPImagePlugin',
   '/usr/lib/python3.7/site-packages/PIL/WebPImagePlugin.py',
   'PYMODULE'),
  ('PIL.SgiImagePlugin',
   '/usr/lib/python3.7/site-packages/PIL/SgiImagePlugin.py',
   'PYMODULE'),
  ('PIL.PsdImagePlugin',
   '/usr/lib/python3.7/site-packages/PIL/PsdImagePlugin.py',
   'PYMODULE'),
  ('PIL.PcxImagePlugin',
   '/usr/lib/python3.7/site-packages/PIL/PcxImagePlugin.py',
   'PYMODULE'),
  ('PIL.MpegImagePlugin',
   '/usr/lib/python3.7/site-packages/PIL/MpegImagePlugin.py',
   'PYMODULE'),
  ('PIL.ImImagePlugin',
   '/usr/lib/python3.7/site-packages/PIL/ImImagePlugin.py',
   'PYMODULE'),
  ('PIL.TiffImagePlugin',
   '/usr/lib/python3.7/site-packages/PIL/TiffImagePlugin.py',
   'PYMODULE'),
  ('fractions', '/usr/lib/python3.7/fractions.py', 'PYMODULE'),
  ('PIL.TiffTags',
   '/usr/lib/python3.7/site-packages/PIL/TiffTags.py',
   'PYMODULE'),
  ('PIL.PixarImagePlugin',
   '/usr/lib/python3.7/site-packages/PIL/PixarImagePlugin.py',
   'PYMODULE'),
  ('PIL.MicImagePlugin',
   '/usr/lib/python3.7/site-packages/PIL/MicImagePlugin.py',
   'PYMODULE'),
  ('PIL.WmfImagePlugin',
   '/usr/lib/python3.7/site-packages/PIL/WmfImagePlugin.py',
   'PYMODULE'),
  ('PIL.Jpeg2KImagePlugin',
   '/usr/lib/python3.7/site-packages/PIL/Jpeg2KImagePlugin.py',
   'PYMODULE'),
  ('PIL.MpoImagePlugin',
   '/usr/lib/python3.7/site-packages/PIL/MpoImagePlugin.py',
   'PYMODULE'),
  ('PIL.IptcImagePlugin',
   '/usr/lib/python3.7/site-packages/PIL/IptcImagePlugin.py',
   'PYMODULE'),
  ('PIL.FitsStubImagePlugin',
   '/usr/lib/python3.7/site-packages/PIL/FitsStubImagePlugin.py',
   'PYMODULE'),
  ('PIL.CurImagePlugin',
   '/usr/lib/python3.7/site-packages/PIL/CurImagePlugin.py',
   'PYMODULE'),
  ('PIL.PcdImagePlugin',
   '/usr/lib/python3.7/site-packages/PIL/PcdImagePlugin.py',
   'PYMODULE'),
  ('PIL.XVThumbImagePlugin',
   '/usr/lib/python3.7/site-packages/PIL/XVThumbImagePlugin.py',
   'PYMODULE'),
  ('PIL.IcnsImagePlugin',
   '/usr/lib/python3.7/site-packages/PIL/IcnsImagePlugin.py',
   'PYMODULE'),
  ('PIL.XpmImagePlugin',
   '/usr/lib/python3.7/site-packages/PIL/XpmImagePlugin.py',
   'PYMODULE'),
  ('PIL.GribStubImagePlugin',
   '/usr/lib/python3.7/site-packages/PIL/GribStubImagePlugin.py',
   'PYMODULE'),
  ('PIL.XbmImagePlugin',
   '/usr/lib/python3.7/site-packages/PIL/XbmImagePlugin.py',
   'PYMODULE'),
  ('PIL.DdsImagePlugin',
   '/usr/lib/python3.7/site-packages/PIL/DdsImagePlugin.py',
   'PYMODULE'),
  ('PIL.TgaImagePlugin',
   '/usr/lib/python3.7/site-packages/PIL/TgaImagePlugin.py',
   'PYMODULE'),
  ('PIL.BlpImagePlugin',
   '/usr/lib/python3.7/site-packages/PIL/BlpImagePlugin.py',
   'PYMODULE'),
  ('PIL.McIdasImagePlugin',
   '/usr/lib/python3.7/site-packages/PIL/McIdasImagePlugin.py',
   'PYMODULE'),
  ('PIL.FtexImagePlugin',
   '/usr/lib/python3.7/site-packages/PIL/FtexImagePlugin.py',
   'PYMODULE'),
  ('PIL.FliImagePlugin',
   '/usr/lib/python3.7/site-packages/PIL/FliImagePlugin.py',
   'PYMODULE'),
  ('PIL.ImageShow',
   '/usr/lib/python3.7/site-packages/PIL/ImageShow.py',
   'PYMODULE'),
  ('pipes', '/usr/lib/python3.7/pipes.py', 'PYMODULE'),
  ('PIL.ImageColor',
   '/usr/lib/python3.7/site-packages/PIL/ImageColor.py',
   'PYMODULE'),
  ('colorsys', '/usr/lib/python3.7/colorsys.py', 'PYMODULE'),
  ('PIL.ImageFilter',
   '/usr/lib/python3.7/site-packages/PIL/ImageFilter.py',
   'PYMODULE'),
  ('numpy', '/usr/lib/python3.7/site-packages/numpy/__init__.py', 'PYMODULE'),
  ('numpy.testing._private.pytesttester',
   '/usr/lib/python3.7/site-packages/numpy/testing/_private/pytesttester.py',
   'PYMODULE'),
  ('numpy.testing._private',
   '/usr/lib/python3.7/site-packages/numpy/testing/_private/__init__.py',
   'PYMODULE'),
  ('numpy.testing._private.decorators',
   '/usr/lib/python3.7/site-packages/numpy/testing/_private/decorators.py',
   'PYMODULE'),
  ('numpy.testing._private.parameterized',
   '/usr/lib/python3.7/site-packages/numpy/testing/_private/parameterized.py',
   'PYMODULE'),
  ('numpy.testing._private.noseclasses',
   '/usr/lib/python3.7/site-packages/numpy/testing/_private/noseclasses.py',
   'PYMODULE'),
  ('numpy.testing._private.nosetester',
   '/usr/lib/python3.7/site-packages/numpy/testing/_private/nosetester.py',
   'PYMODULE'),
  ('numpy.testing._private.utils',
   '/usr/lib/python3.7/site-packages/numpy/testing/_private/utils.py',
   'PYMODULE'),
  ('numpy.core.numerictypes',
   '/usr/lib/python3.7/site-packages/numpy/core/numerictypes.py',
   'PYMODULE'),
  ('numpy.core.fromnumeric',
   '/usr/lib/python3.7/site-packages/numpy/core/fromnumeric.py',
   'PYMODULE'),
  ('numpy.core._methods',
   '/usr/lib/python3.7/site-packages/numpy/core/_methods.py',
   'PYMODULE'),
  ('numpy.core.numeric',
   '/usr/lib/python3.7/site-packages/numpy/core/numeric.py',
   'PYMODULE'),
  ('numpy.core.arrayprint',
   '/usr/lib/python3.7/site-packages/numpy/core/arrayprint.py',
   'PYMODULE'),
  ('numpy.core._internal',
   '/usr/lib/python3.7/site-packages/numpy/core/_internal.py',
   'PYMODULE'),
  ('numpy.lib.utils',
   '/usr/lib/python3.7/site-packages/numpy/lib/utils.py',
   'PYMODULE'),
  ('numpy.distutils.cpuinfo',
   '/usr/lib/python3.7/site-packages/numpy/distutils/cpuinfo.py',
   'PYMODULE'),
  ('numpy.distutils.compat',
   '/usr/lib/python3.7/site-packages/numpy/distutils/compat.py',
   'PYMODULE'),
  ('numpy.distutils',
   '/usr/lib/python3.7/site-packages/numpy/distutils/__init__.py',
   'PYMODULE'),
  ('numpy.distutils.fcompiler',
   '/usr/lib/python3.7/site-packages/numpy/distutils/fcompiler/__init__.py',
   'PYMODULE'),
  ('numpy.distutils.command.config_compiler',
   '/usr/lib/python3.7/site-packages/numpy/distutils/command/config_compiler.py',
   'PYMODULE'),
  ('numpy.distutils.command',
   '/usr/lib/python3.7/site-packages/numpy/distutils/command/__init__.py',
   'PYMODULE'),
  ('numpy.distutils.command.egg_info',
   '/usr/lib/python3.7/site-packages/numpy/distutils/command/egg_info.py',
   'PYMODULE'),
  ('setuptools.command.egg_info',
   '/usr/lib/python3.7/site-packages/setuptools/command/egg_info.py',
   'PYMODULE'),
  ('setuptools.glob',
   '/usr/lib/python3.7/site-packages/setuptools/glob.py',
   'PYMODULE'),
  ('setuptools.unicode_utils',
   '/usr/lib/python3.7/site-packages/setuptools/unicode_utils.py',
   'PYMODULE'),
  ('setuptools.command.bdist_egg',
   '/usr/lib/python3.7/site-packages/setuptools/command/bdist_egg.py',
   'PYMODULE'),
  ('setuptools.extension',
   '/usr/lib/python3.7/site-packages/setuptools/extension.py',
   'PYMODULE'),
  ('setuptools.monkey',
   '/usr/lib/python3.7/site-packages/setuptools/monkey.py',
   'PYMODULE'),
  ('distutils.extension',
   '/usr/lib/python3.7/distutils/extension.py',
   'PYMODULE'),
  ('setuptools.command',
   '/usr/lib/python3.7/site-packages/setuptools/command/__init__.py',
   'PYMODULE'),
  ('setuptools.command.install_scripts',
   '/usr/lib/python3.7/site-packages/setuptools/command/install_scripts.py',
   'PYMODULE'),
  ('setuptools.command.easy_install',
   '/usr/lib/python3.7/site-packages/setuptools/command/easy_install.py',
   'PYMODULE'),
  ('setuptools.dist',
   '/usr/lib/python3.7/site-packages/setuptools/dist.py',
   'PYMODULE'),
  ('setuptools.py36compat',
   '/usr/lib/python3.7/site-packages/setuptools/py36compat.py',
   'PYMODULE'),
  ('setuptools.config',
   '/usr/lib/python3.7/site-packages/setuptools/config.py',
   'PYMODULE'),
  ('packaging.version',
   '/usr/lib/python3.7/site-packages/packaging/version.py',
   'PYMODULE'),
  ('packaging._structures',
   '/usr/lib/python3.7/site-packages/packaging/_structures.py',
   'PYMODULE'),
  ('setuptools.windows_support',
   '/usr/lib/python3.7/site-packages/setuptools/windows_support.py',
   'PYMODULE'),
  ('setuptools.depends',
   '/usr/lib/python3.7/site-packages/setuptools/depends.py',
   'PYMODULE'),
  ('setuptools.py33compat',
   '/usr/lib/python3.7/site-packages/setuptools/py33compat.py',
   'PYMODULE'),
  ('distutils.version', '/usr/lib/python3.7/distutils/version.py', 'PYMODULE'),
  ('distutils.cmd', '/usr/lib/python3.7/distutils/cmd.py', 'PYMODULE'),
  ('setuptools.wheel',
   '/usr/lib/python3.7/site-packages/setuptools/wheel.py',
   'PYMODULE'),
  ('setuptools.pep425tags',
   '/usr/lib/python3.7/site-packages/setuptools/pep425tags.py',
   'PYMODULE'),
  ('setuptools.glibc',
   '/usr/lib/python3.7/site-packages/setuptools/glibc.py',
   'PYMODULE'),
  ('packaging.utils',
   '/usr/lib/python3.7/site-packages/packaging/utils.py',
   'PYMODULE'),
  ('setuptools.package_index',
   '/usr/lib/python3.7/site-packages/setuptools/package_index.py',
   'PYMODULE'),
  ('setuptools.ssl_support',
   '/usr/lib/python3.7/site-packages/setuptools/ssl_support.py',
   'PYMODULE'),
  ('setuptools.archive_util',
   '/usr/lib/python3.7/site-packages/setuptools/archive_util.py',
   'PYMODULE'),
  ('setuptools.py27compat',
   '/usr/lib/python3.7/site-packages/setuptools/py27compat.py',
   'PYMODULE'),
  ('setuptools.sandbox',
   '/usr/lib/python3.7/site-packages/setuptools/sandbox.py',
   'PYMODULE'),
  ('site',
   '/home/kenny/.local/lib/python3.7/site-packages/PyInstaller/fake-modules/site.py',
   'PYMODULE'),
  ('distutils.command.build_scripts',
   '/usr/lib/python3.7/distutils/command/build_scripts.py',
   'PYMODULE'),
  ('distutils.command',
   '/usr/lib/python3.7/distutils/command/__init__.py',
   'PYMODULE'),
  ('distutils.command.install',
   '/usr/lib/python3.7/distutils/command/install.py',
   'PYMODULE'),
  ('distutils.command.install_scripts',
   '/usr/lib/python3.7/distutils/command/install_scripts.py',
   'PYMODULE'),
  ('distutils.command.bdist',
   '/usr/lib/python3.7/distutils/command/bdist.py',
   'PYMODULE'),
  ('setuptools.command.setopt',
   '/usr/lib/python3.7/site-packages/setuptools/command/setopt.py',
   'PYMODULE'),
  ('setuptools.command.sdist',
   '/usr/lib/python3.7/site-packages/setuptools/command/sdist.py',
   'PYMODULE'),
  ('setuptools.command.py36compat',
   '/usr/lib/python3.7/site-packages/setuptools/command/py36compat.py',
   'PYMODULE'),
  ('distutils.command.sdist',
   '/usr/lib/python3.7/distutils/command/sdist.py',
   'PYMODULE'),
  ('setuptools',
   '/usr/lib/python3.7/site-packages/setuptools/__init__.py',
   'PYMODULE'),
  ('setuptools.msvc',
   '/usr/lib/python3.7/site-packages/setuptools/msvc.py',
   'PYMODULE'),
  ('distutils.msvc9compiler',
   '/usr/lib/python3.7/distutils/msvc9compiler.py',
   'PYMODULE'),
  ('distutils.command.build_ext',
   '/usr/lib/python3.7/distutils/command/build_ext.py',
   'PYMODULE'),
  ('distutils._msvccompiler',
   '/usr/lib/python3.7/distutils/_msvccompiler.py',
   'PYMODULE'),
  ('concurrent.futures',
   '/usr/lib/python3.7/concurrent/futures/__init__.py',
   'PYMODULE'),
  ('concurrent.futures.thread',
   '/usr/lib/python3.7/concurrent/futures/thread.py',
   'PYMODULE'),
  ('concurrent.futures.process',
   '/usr/lib/python3.7/concurrent/futures/process.py',
   'PYMODULE'),
  ('concurrent.futures._base',
   '/usr/lib/python3.7/concurrent/futures/_base.py',
   'PYMODULE'),
  ('concurrent', '/usr/lib/python3.7/concurrent/__init__.py', 'PYMODULE'),
  ('setuptools.namespaces',
   '/usr/lib/python3.7/site-packages/setuptools/namespaces.py',
   'PYMODULE'),
  ('setuptools.version',
   '/usr/lib/python3.7/site-packages/setuptools/version.py',
   'PYMODULE'),
  ('numpy.distutils.command.develop',
   '/usr/lib/python3.7/site-packages/numpy/distutils/command/develop.py',
   'PYMODULE'),
  ('setuptools.command.develop',
   '/usr/lib/python3.7/site-packages/setuptools/command/develop.py',
   'PYMODULE'),
  ('numpy.distutils.command.install_clib',
   '/usr/lib/python3.7/site-packages/numpy/distutils/command/install_clib.py',
   'PYMODULE'),
  ('numpy.distutils.command.bdist_rpm',
   '/usr/lib/python3.7/site-packages/numpy/distutils/command/bdist_rpm.py',
   'PYMODULE'),
  ('distutils.command.bdist_rpm',
   '/usr/lib/python3.7/distutils/command/bdist_rpm.py',
   'PYMODULE'),
  ('setuptools.command.bdist_rpm',
   '/usr/lib/python3.7/site-packages/setuptools/command/bdist_rpm.py',
   'PYMODULE'),
  ('numpy.distutils.command.install',
   '/usr/lib/python3.7/site-packages/numpy/distutils/command/install.py',
   'PYMODULE'),
  ('setuptools.command.install',
   '/usr/lib/python3.7/site-packages/setuptools/command/install.py',
   'PYMODULE'),
  ('numpy.distutils.command.install_headers',
   '/usr/lib/python3.7/site-packages/numpy/distutils/command/install_headers.py',
   'PYMODULE'),
  ('distutils.command.install_headers',
   '/usr/lib/python3.7/distutils/command/install_headers.py',
   'PYMODULE'),
  ('numpy.distutils.command.install_data',
   '/usr/lib/python3.7/site-packages/numpy/distutils/command/install_data.py',
   'PYMODULE'),
  ('distutils.command.install_data',
   '/usr/lib/python3.7/distutils/command/install_data.py',
   'PYMODULE'),
  ('numpy.distutils.command.sdist',
   '/usr/lib/python3.7/site-packages/numpy/distutils/command/sdist.py',
   'PYMODULE'),
  ('numpy.distutils.command.build_scripts',
   '/usr/lib/python3.7/site-packages/numpy/distutils/command/build_scripts.py',
   'PYMODULE'),
  ('numpy.distutils.command.build_clib',
   '/usr/lib/python3.7/site-packages/numpy/distutils/command/build_clib.py',
   'PYMODULE'),
  ('distutils.command.build_clib',
   '/usr/lib/python3.7/distutils/command/build_clib.py',
   'PYMODULE'),
  ('numpy.distutils.command.build_ext',
   '/usr/lib/python3.7/site-packages/numpy/distutils/command/build_ext.py',
   'PYMODULE'),
  ('numpy.distutils.system_info',
   '/usr/lib/python3.7/site-packages/numpy/distutils/system_info.py',
   'PYMODULE'),
  ('numpy.f2py',
   '/usr/lib/python3.7/site-packages/numpy/f2py/__init__.py',
   'PYMODULE'),
  ('numpy.f2py.diagnose',
   '/usr/lib/python3.7/site-packages/numpy/f2py/diagnose.py',
   'PYMODULE'),
  ('numpy.f2py.f2py_testing',
   '/usr/lib/python3.7/site-packages/numpy/f2py/f2py_testing.py',
   'PYMODULE'),
  ('numpy.f2py.f2py2e',
   '/usr/lib/python3.7/site-packages/numpy/f2py/f2py2e.py',
   'PYMODULE'),
  ('numpy.distutils.command.build_src',
   '/usr/lib/python3.7/site-packages/numpy/distutils/command/build_src.py',
   'PYMODULE'),
  ('numpy.distutils.conv_template',
   '/usr/lib/python3.7/site-packages/numpy/distutils/conv_template.py',
   'PYMODULE'),
  ('numpy.distutils.from_template',
   '/usr/lib/python3.7/site-packages/numpy/distutils/from_template.py',
   'PYMODULE'),
  ('numpy.f2py.auxfuncs',
   '/usr/lib/python3.7/site-packages/numpy/f2py/auxfuncs.py',
   'PYMODULE'),
  ('numpy.f2py.f90mod_rules',
   '/usr/lib/python3.7/site-packages/numpy/f2py/f90mod_rules.py',
   'PYMODULE'),
  ('numpy.f2py.rules',
   '/usr/lib/python3.7/site-packages/numpy/f2py/rules.py',
   'PYMODULE'),
  ('numpy.f2py.use_rules',
   '/usr/lib/python3.7/site-packages/numpy/f2py/use_rules.py',
   'PYMODULE'),
  ('numpy.f2py.common_rules',
   '/usr/lib/python3.7/site-packages/numpy/f2py/common_rules.py',
   'PYMODULE'),
  ('numpy.f2py.func2subr',
   '/usr/lib/python3.7/site-packages/numpy/f2py/func2subr.py',
   'PYMODULE'),
  ('numpy.f2py.crackfortran',
   '/usr/lib/python3.7/site-packages/numpy/f2py/crackfortran.py',
   'PYMODULE'),
  ('fileinput', '/usr/lib/python3.7/fileinput.py', 'PYMODULE'),
  ('numpy.f2py.cb_rules',
   '/usr/lib/python3.7/site-packages/numpy/f2py/cb_rules.py',
   'PYMODULE'),
  ('numpy.f2py.capi_maps',
   '/usr/lib/python3.7/site-packages/numpy/f2py/capi_maps.py',
   'PYMODULE'),
  ('numpy.f2py.cfuncs',
   '/usr/lib/python3.7/site-packages/numpy/f2py/cfuncs.py',
   'PYMODULE'),
  ('numpy.f2py.__version__',
   '/usr/lib/python3.7/site-packages/numpy/f2py/__version__.py',
   'PYMODULE'),
  ('numpy.distutils.command.build_py',
   '/usr/lib/python3.7/site-packages/numpy/distutils/command/build_py.py',
   'PYMODULE'),
  ('distutils.command.build_py',
   '/usr/lib/python3.7/distutils/command/build_py.py',
   'PYMODULE'),
  ('numpy.distutils.command.build',
   '/usr/lib/python3.7/site-packages/numpy/distutils/command/build.py',
   'PYMODULE'),
  ('distutils.command.build',
   '/usr/lib/python3.7/distutils/command/build.py',
   'PYMODULE'),
  ('numpy.distutils.command.config',
   '/usr/lib/python3.7/site-packages/numpy/distutils/command/config.py',
   'PYMODULE'),
  ('numpy.distutils.command.autodist',
   '/usr/lib/python3.7/site-packages/numpy/distutils/command/autodist.py',
   'PYMODULE'),
  ('numpy.distutils.mingw32ccompiler',
   '/usr/lib/python3.7/site-packages/numpy/distutils/mingw32ccompiler.py',
   'PYMODULE'),
  ('distutils.msvccompiler',
   '/usr/lib/python3.7/distutils/msvccompiler.py',
   'PYMODULE'),
  ('distutils.unixccompiler',
   '/usr/lib/python3.7/distutils/unixccompiler.py',
   'PYMODULE'),
  ('distutils.cygwinccompiler',
   '/usr/lib/python3.7/distutils/cygwinccompiler.py',
   'PYMODULE'),
  ('distutils.command.config',
   '/usr/lib/python3.7/distutils/command/config.py',
   'PYMODULE'),
  ('distutils.core', '/usr/lib/python3.7/distutils/core.py', 'PYMODULE'),
  ('distutils.config', '/usr/lib/python3.7/distutils/config.py', 'PYMODULE'),
  ('cgi', '/usr/lib/python3.7/cgi.py', 'PYMODULE'),
  ('distutils.dist', '/usr/lib/python3.7/distutils/dist.py', 'PYMODULE'),
  ('distutils.versionpredicate',
   '/usr/lib/python3.7/distutils/versionpredicate.py',
   'PYMODULE'),
  ('numpy.distutils.core',
   '/usr/lib/python3.7/site-packages/numpy/distutils/core.py',
   'PYMODULE'),
  ('numpy.distutils.numpy_distribution',
   '/usr/lib/python3.7/site-packages/numpy/distutils/numpy_distribution.py',
   'PYMODULE'),
  ('numpy.distutils.extension',
   '/usr/lib/python3.7/site-packages/numpy/distutils/extension.py',
   'PYMODULE'),
  ('numpy.distutils.exec_command',
   '/usr/lib/python3.7/site-packages/numpy/distutils/exec_command.py',
   'PYMODULE'),
  ('numpy.distutils.environment',
   '/usr/lib/python3.7/site-packages/numpy/distutils/environment.py',
   'PYMODULE'),
  ('numpy.distutils.misc_util',
   '/usr/lib/python3.7/site-packages/numpy/distutils/misc_util.py',
   'PYMODULE'),
  ('curses', '/usr/lib/python3.7/curses/__init__.py', 'PYMODULE'),
  ('curses.has_key', '/usr/lib/python3.7/curses/has_key.py', 'PYMODULE'),
  ('numpy.distutils.__config__',
   '/usr/lib/python3.7/site-packages/numpy/distutils/__config__.py',
   'PYMODULE'),
  ('numpy.distutils.npy_pkg_config',
   '/usr/lib/python3.7/site-packages/numpy/distutils/npy_pkg_config.py',
   'PYMODULE'),
  ('numpy.distutils.info',
   '/usr/lib/python3.7/site-packages/numpy/distutils/info.py',
   'PYMODULE'),
  ('numpy.distutils.unixccompiler',
   '/usr/lib/python3.7/site-packages/numpy/distutils/unixccompiler.py',
   'PYMODULE'),
  ('numpy.distutils.ccompiler',
   '/usr/lib/python3.7/site-packages/numpy/distutils/ccompiler.py',
   'PYMODULE'),
  ('numpy.distutils.lib2def',
   '/usr/lib/python3.7/site-packages/numpy/distutils/lib2def.py',
   'PYMODULE'),
  ('numpy.distutils.log',
   '/usr/lib/python3.7/site-packages/numpy/distutils/log.py',
   'PYMODULE'),
  ('numpy.distutils.__version__',
   '/usr/lib/python3.7/site-packages/numpy/distutils/__version__.py',
   'PYMODULE'),
  ('numpy.testing',
   '/usr/lib/python3.7/site-packages/numpy/testing/__init__.py',
   'PYMODULE'),
  ('numpy.matrixlib',
   '/usr/lib/python3.7/site-packages/numpy/matrixlib/__init__.py',
   'PYMODULE'),
  ('numpy.matrixlib.defmatrix',
   '/usr/lib/python3.7/site-packages/numpy/matrixlib/defmatrix.py',
   'PYMODULE'),
  ('numpy.dual', '/usr/lib/python3.7/site-packages/numpy/dual.py', 'PYMODULE'),
  ('numpy.ma',
   '/usr/lib/python3.7/site-packages/numpy/ma/__init__.py',
   'PYMODULE'),
  ('numpy.ma.extras',
   '/usr/lib/python3.7/site-packages/numpy/ma/extras.py',
   'PYMODULE'),
  ('numpy.lib.index_tricks',
   '/usr/lib/python3.7/site-packages/numpy/lib/index_tricks.py',
   'PYMODULE'),
  ('numpy.lib.stride_tricks',
   '/usr/lib/python3.7/site-packages/numpy/lib/stride_tricks.py',
   'PYMODULE'),
  ('numpy.lib.function_base',
   '/usr/lib/python3.7/site-packages/numpy/lib/function_base.py',
   'PYMODULE'),
  ('numpy.lib.histograms',
   '/usr/lib/python3.7/site-packages/numpy/lib/histograms.py',
   'PYMODULE'),
  ('numpy.compat.py3k',
   '/usr/lib/python3.7/site-packages/numpy/compat/py3k.py',
   'PYMODULE'),
  ('numpy.lib.twodim_base',
   '/usr/lib/python3.7/site-packages/numpy/lib/twodim_base.py',
   'PYMODULE'),
  ('numpy.ma.core',
   '/usr/lib/python3.7/site-packages/numpy/ma/core.py',
   'PYMODULE'),
  ('numpy.ctypeslib',
   '/usr/lib/python3.7/site-packages/numpy/ctypeslib.py',
   'PYMODULE'),
  ('numpy.random',
   '/usr/lib/python3.7/site-packages/numpy/random/__init__.py',
   'PYMODULE'),
  ('numpy.random.info',
   '/usr/lib/python3.7/site-packages/numpy/random/info.py',
   'PYMODULE'),
  ('numpy.polynomial',
   '/usr/lib/python3.7/site-packages/numpy/polynomial/__init__.py',
   'PYMODULE'),
  ('numpy.polynomial.laguerre',
   '/usr/lib/python3.7/site-packages/numpy/polynomial/laguerre.py',
   'PYMODULE'),
  ('numpy.polynomial._polybase',
   '/usr/lib/python3.7/site-packages/numpy/polynomial/_polybase.py',
   'PYMODULE'),
  ('numpy.polynomial.hermite_e',
   '/usr/lib/python3.7/site-packages/numpy/polynomial/hermite_e.py',
   'PYMODULE'),
  ('numpy.polynomial.hermite',
   '/usr/lib/python3.7/site-packages/numpy/polynomial/hermite.py',
   'PYMODULE'),
  ('numpy.polynomial.legendre',
   '/usr/lib/python3.7/site-packages/numpy/polynomial/legendre.py',
   'PYMODULE'),
  ('numpy.polynomial.chebyshev',
   '/usr/lib/python3.7/site-packages/numpy/polynomial/chebyshev.py',
   'PYMODULE'),
  ('numpy.polynomial.polynomial',
   '/usr/lib/python3.7/site-packages/numpy/polynomial/polynomial.py',
   'PYMODULE'),
  ('numpy.polynomial.polyutils',
   '/usr/lib/python3.7/site-packages/numpy/polynomial/polyutils.py',
   'PYMODULE'),
  ('numpy.fft',
   '/usr/lib/python3.7/site-packages/numpy/fft/__init__.py',
   'PYMODULE'),
  ('numpy.fft.helper',
   '/usr/lib/python3.7/site-packages/numpy/fft/helper.py',
   'PYMODULE'),
  ('numpy.fft.fftpack',
   '/usr/lib/python3.7/site-packages/numpy/fft/fftpack.py',
   'PYMODULE'),
  ('numpy.fft.info',
   '/usr/lib/python3.7/site-packages/numpy/fft/info.py',
   'PYMODULE'),
  ('numpy.linalg',
   '/usr/lib/python3.7/site-packages/numpy/linalg/__init__.py',
   'PYMODULE'),
  ('numpy.linalg.linalg',
   '/usr/lib/python3.7/site-packages/numpy/linalg/linalg.py',
   'PYMODULE'),
  ('numpy.linalg.info',
   '/usr/lib/python3.7/site-packages/numpy/linalg/info.py',
   'PYMODULE'),
  ('numpy.lib',
   '/usr/lib/python3.7/site-packages/numpy/lib/__init__.py',
   'PYMODULE'),
  ('numpy.lib._version',
   '/usr/lib/python3.7/site-packages/numpy/lib/_version.py',
   'PYMODULE'),
  ('numpy.lib.arraypad',
   '/usr/lib/python3.7/site-packages/numpy/lib/arraypad.py',
   'PYMODULE'),
  ('numpy.lib.arrayterator',
   '/usr/lib/python3.7/site-packages/numpy/lib/arrayterator.py',
   'PYMODULE'),
  ('numpy.lib.financial',
   '/usr/lib/python3.7/site-packages/numpy/lib/financial.py',
   'PYMODULE'),
  ('numpy.lib.npyio',
   '/usr/lib/python3.7/site-packages/numpy/lib/npyio.py',
   'PYMODULE'),
  ('numpy.ma.mrecords',
   '/usr/lib/python3.7/site-packages/numpy/ma/mrecords.py',
   'PYMODULE'),
  ('numpy.core.records',
   '/usr/lib/python3.7/site-packages/numpy/core/records.py',
   'PYMODULE'),
  ('numpy.lib._iotools',
   '/usr/lib/python3.7/site-packages/numpy/lib/_iotools.py',
   'PYMODULE'),
  ('numpy.lib._datasource',
   '/usr/lib/python3.7/site-packages/numpy/lib/_datasource.py',
   'PYMODULE'),
  ('numpy.lib.format',
   '/usr/lib/python3.7/site-packages/numpy/lib/format.py',
   'PYMODULE'),
  ('numpy.lib.arraysetops',
   '/usr/lib/python3.7/site-packages/numpy/lib/arraysetops.py',
   'PYMODULE'),
  ('numpy.lib.polynomial',
   '/usr/lib/python3.7/site-packages/numpy/lib/polynomial.py',
   'PYMODULE'),
  ('numpy.lib.scimath',
   '/usr/lib/python3.7/site-packages/numpy/lib/scimath.py',
   'PYMODULE'),
  ('numpy.lib.ufunclike',
   '/usr/lib/python3.7/site-packages/numpy/lib/ufunclike.py',
   'PYMODULE'),
  ('numpy.lib.shape_base',
   '/usr/lib/python3.7/site-packages/numpy/lib/shape_base.py',
   'PYMODULE'),
  ('numpy.lib.nanfunctions',
   '/usr/lib/python3.7/site-packages/numpy/lib/nanfunctions.py',
   'PYMODULE'),
  ('numpy.lib.mixins',
   '/usr/lib/python3.7/site-packages/numpy/lib/mixins.py',
   'PYMODULE'),
  ('numpy.lib.type_check',
   '/usr/lib/python3.7/site-packages/numpy/lib/type_check.py',
   'PYMODULE'),
  ('numpy.core.getlimits',
   '/usr/lib/python3.7/site-packages/numpy/core/getlimits.py',
   'PYMODULE'),
  ('numpy.core.machar',
   '/usr/lib/python3.7/site-packages/numpy/core/machar.py',
   'PYMODULE'),
  ('numpy.lib.info',
   '/usr/lib/python3.7/site-packages/numpy/lib/info.py',
   'PYMODULE'),
  ('numpy.compat',
   '/usr/lib/python3.7/site-packages/numpy/compat/__init__.py',
   'PYMODULE'),
  ('numpy.compat._inspect',
   '/usr/lib/python3.7/site-packages/numpy/compat/_inspect.py',
   'PYMODULE'),
  ('numpy.core',
   '/usr/lib/python3.7/site-packages/numpy/core/__init__.py',
   'PYMODULE'),
  ('numpy.core.einsumfunc',
   '/usr/lib/python3.7/site-packages/numpy/core/einsumfunc.py',
   'PYMODULE'),
  ('numpy.core.shape_base',
   '/usr/lib/python3.7/site-packages/numpy/core/shape_base.py',
   'PYMODULE'),
  ('numpy.core.function_base',
   '/usr/lib/python3.7/site-packages/numpy/core/function_base.py',
   'PYMODULE'),
  ('numpy.core.memmap',
   '/usr/lib/python3.7/site-packages/numpy/core/memmap.py',
   'PYMODULE'),
  ('numpy.core.defchararray',
   '/usr/lib/python3.7/site-packages/numpy/core/defchararray.py',
   'PYMODULE'),
  ('numpy.core.info',
   '/usr/lib/python3.7/site-packages/numpy/core/info.py',
   'PYMODULE'),
  ('numpy._distributor_init',
   '/usr/lib/python3.7/site-packages/numpy/_distributor_init.py',
   'PYMODULE'),
  ('numpy.add_newdocs',
   '/usr/lib/python3.7/site-packages/numpy/add_newdocs.py',
   'PYMODULE'),
  ('numpy._import_tools',
   '/usr/lib/python3.7/site-packages/numpy/_import_tools.py',
   'PYMODULE'),
  ('numpy.version',
   '/usr/lib/python3.7/site-packages/numpy/version.py',
   'PYMODULE'),
  ('numpy.__config__',
   '/usr/lib/python3.7/site-packages/numpy/__config__.py',
   'PYMODULE'),
  ('numpy._globals',
   '/usr/lib/python3.7/site-packages/numpy/_globals.py',
   'PYMODULE'),
  ('PIL.PyAccess',
   '/usr/lib/python3.7/site-packages/PIL/PyAccess.py',
   'PYMODULE'),
  ('PIL.ImagePalette',
   '/usr/lib/python3.7/site-packages/PIL/ImagePalette.py',
   'PYMODULE'),
  ('PIL.PaletteFile',
   '/usr/lib/python3.7/site-packages/PIL/PaletteFile.py',
   'PYMODULE'),
  ('PIL.GimpGradientFile',
   '/usr/lib/python3.7/site-packages/PIL/GimpGradientFile.py',
   'PYMODULE'),
  ('PIL.GimpPaletteFile',
   '/usr/lib/python3.7/site-packages/PIL/GimpPaletteFile.py',
   'PYMODULE'),
  ('PIL.PngImagePlugin',
   '/usr/lib/python3.7/site-packages/PIL/PngImagePlugin.py',
   'PYMODULE'),
  ('PIL.PpmImagePlugin',
   '/usr/lib/python3.7/site-packages/PIL/PpmImagePlugin.py',
   'PYMODULE'),
  ('PIL.JpegImagePlugin',
   '/usr/lib/python3.7/site-packages/PIL/JpegImagePlugin.py',
   'PYMODULE'),
  ('PIL.JpegPresets',
   '/usr/lib/python3.7/site-packages/PIL/JpegPresets.py',
   'PYMODULE'),
  ('PIL.GifImagePlugin',
   '/usr/lib/python3.7/site-packages/PIL/GifImagePlugin.py',
   'PYMODULE'),
  ('PIL.ImageChops',
   '/usr/lib/python3.7/site-packages/PIL/ImageChops.py',
   'PYMODULE'),
  ('PIL.BmpImagePlugin',
   '/usr/lib/python3.7/site-packages/PIL/BmpImagePlugin.py',
   'PYMODULE'),
  ('pathlib', '/usr/lib/python3.7/pathlib.py', 'PYMODULE'),
  ('PIL._binary',
   '/usr/lib/python3.7/site-packages/PIL/_binary.py',
   'PYMODULE'),
  ('PIL.ImageMode',
   '/usr/lib/python3.7/site-packages/PIL/ImageMode.py',
   'PYMODULE'),
  ('PIL', '/usr/lib/python3.7/site-packages/PIL/__init__.py', 'PYMODULE'),
  ('PIL._version',
   '/usr/lib/python3.7/site-packages/PIL/_version.py',
   'PYMODULE'),
  ('PyQt5', '/usr/lib/python3.7/site-packages/PyQt5/__init__.py', 'PYMODULE'),
  ('praw',
   '/home/kenny/.local/lib/python3.7/site-packages/praw/__init__.py',
   'PYMODULE'),
  ('praw.reddit',
   '/home/kenny/.local/lib/python3.7/site-packages/praw/reddit.py',
   'PYMODULE'),
  ('praw.objector',
   '/home/kenny/.local/lib/python3.7/site-packages/praw/objector.py',
   'PYMODULE'),
  ('praw.config',
   '/home/kenny/.local/lib/python3.7/site-packages/praw/config.py',
   'PYMODULE'),
  ('praw.exceptions',
   '/home/kenny/.local/lib/python3.7/site-packages/praw/exceptions.py',
   'PYMODULE'),
  ('prawcore',
   '/home/kenny/.local/lib/python3.7/site-packages/prawcore/__init__.py',
   'PYMODULE'),
  ('prawcore.sessions',
   '/home/kenny/.local/lib/python3.7/site-packages/prawcore/sessions.py',
   'PYMODULE'),
  ('prawcore.util',
   '/home/kenny/.local/lib/python3.7/site-packages/prawcore/util.py',
   'PYMODULE'),
  ('prawcore.rate_limit',
   '/home/kenny/.local/lib/python3.7/site-packages/prawcore/rate_limit.py',
   'PYMODULE'),
  ('prawcore.requestor',
   '/home/kenny/.local/lib/python3.7/site-packages/prawcore/requestor.py',
   'PYMODULE'),
  ('prawcore.exceptions',
   '/home/kenny/.local/lib/python3.7/site-packages/prawcore/exceptions.py',
   'PYMODULE'),
  ('prawcore.auth',
   '/home/kenny/.local/lib/python3.7/site-packages/prawcore/auth.py',
   'PYMODULE'),
  ('prawcore.const',
   '/home/kenny/.local/lib/python3.7/site-packages/prawcore/const.py',
   'PYMODULE'),
  ('update_checker',
   '/home/kenny/.local/lib/python3.7/site-packages/update_checker.py',
   'PYMODULE'),
  ('praw.models',
   '/home/kenny/.local/lib/python3.7/site-packages/praw/models/__init__.py',
   'PYMODULE'),
  ('praw.models.user',
   '/home/kenny/.local/lib/python3.7/site-packages/praw/models/user.py',
   'PYMODULE'),
  ('praw.models.base',
   '/home/kenny/.local/lib/python3.7/site-packages/praw/models/base.py',
   'PYMODULE'),
  ('praw.models.subreddits',
   '/home/kenny/.local/lib/python3.7/site-packages/praw/models/subreddits.py',
   'PYMODULE'),
  ('praw.models.util',
   '/home/kenny/.local/lib/python3.7/site-packages/praw/models/util.py',
   'PYMODULE'),
  ('praw.models.stylesheet',
   '/home/kenny/.local/lib/python3.7/site-packages/praw/models/stylesheet.py',
   'PYMODULE'),
  ('praw.models.reddit.wikipage',
   '/home/kenny/.local/lib/python3.7/site-packages/praw/models/reddit/wikipage.py',
   'PYMODULE'),
  ('praw.models.reddit',
   '/home/kenny/.local/lib/python3.7/site-packages/praw/models/reddit/__init__.py',
   'PYMODULE'),
  ('praw.models.reddit.base',
   '/home/kenny/.local/lib/python3.7/site-packages/praw/models/reddit/base.py',
   'PYMODULE'),
  ('praw.models.reddit.widgets',
   '/home/kenny/.local/lib/python3.7/site-packages/praw/models/reddit/widgets.py',
   'PYMODULE'),
  ('praw.models.list.base',
   '/home/kenny/.local/lib/python3.7/site-packages/praw/models/list/base.py',
   'PYMODULE'),
  ('praw.models.list',
   '/home/kenny/.local/lib/python3.7/site-packages/praw/models/list/__init__.py',
   'PYMODULE'),
  ('praw.models.reddit.subreddit',
   '/home/kenny/.local/lib/python3.7/site-packages/praw/models/reddit/subreddit.py',
   'PYMODULE'),
  ('praw.models.reddit.mixins',
   '/home/kenny/.local/lib/python3.7/site-packages/praw/models/reddit/mixins/__init__.py',
   'PYMODULE'),
  ('praw.models.reddit.mixins.votable',
   '/home/kenny/.local/lib/python3.7/site-packages/praw/models/reddit/mixins/votable.py',
   'PYMODULE'),
  ('praw.models.reddit.mixins.savable',
   '/home/kenny/.local/lib/python3.7/site-packages/praw/models/reddit/mixins/savable.py',
   'PYMODULE'),
  ('praw.models.reddit.mixins.reportable',
   '/home/kenny/.local/lib/python3.7/site-packages/praw/models/reddit/mixins/reportable.py',
   'PYMODULE'),
  ('praw.models.reddit.mixins.replyable',
   '/home/kenny/.local/lib/python3.7/site-packages/praw/models/reddit/mixins/replyable.py',
   'PYMODULE'),
  ('praw.models.reddit.mixins.messageable',
   '/home/kenny/.local/lib/python3.7/site-packages/praw/models/reddit/mixins/messageable.py',
   'PYMODULE'),
  ('praw.models.reddit.mixins.inboxtoggleable',
   '/home/kenny/.local/lib/python3.7/site-packages/praw/models/reddit/mixins/inboxtoggleable.py',
   'PYMODULE'),
  ('praw.models.reddit.mixins.inboxable',
   '/home/kenny/.local/lib/python3.7/site-packages/praw/models/reddit/mixins/inboxable.py',
   'PYMODULE'),
  ('praw.models.reddit.mixins.gildable',
   '/home/kenny/.local/lib/python3.7/site-packages/praw/models/reddit/mixins/gildable.py',
   'PYMODULE'),
  ('praw.models.reddit.mixins.editable',
   '/home/kenny/.local/lib/python3.7/site-packages/praw/models/reddit/mixins/editable.py',
   'PYMODULE'),
  ('praw.models.listing.mixins',
   '/home/kenny/.local/lib/python3.7/site-packages/praw/models/listing/mixins/__init__.py',
   'PYMODULE'),
  ('praw.models.listing',
   '/home/kenny/.local/lib/python3.7/site-packages/praw/models/listing/__init__.py',
   'PYMODULE'),
  ('praw.models.listing.mixins.subreddit',
   '/home/kenny/.local/lib/python3.7/site-packages/praw/models/listing/mixins/subreddit.py',
   'PYMODULE'),
  ('praw.models.listing.mixins.gilded',
   '/home/kenny/.local/lib/python3.7/site-packages/praw/models/listing/mixins/gilded.py',
   'PYMODULE'),
  ('praw.models.listing.mixins.submission',
   '/home/kenny/.local/lib/python3.7/site-packages/praw/models/listing/mixins/submission.py',
   'PYMODULE'),
  ('praw.models.listing.mixins.rising',
   '/home/kenny/.local/lib/python3.7/site-packages/praw/models/listing/mixins/rising.py',
   'PYMODULE'),
  ('praw.models.listing.mixins.redditor',
   '/home/kenny/.local/lib/python3.7/site-packages/praw/models/listing/mixins/redditor.py',
   'PYMODULE'),
  ('praw.models.listing.mixins.base',
   '/home/kenny/.local/lib/python3.7/site-packages/praw/models/listing/mixins/base.py',
   'PYMODULE'),
  ('praw.models.reddit.submission',
   '/home/kenny/.local/lib/python3.7/site-packages/praw/models/reddit/submission.py',
   'PYMODULE'),
  ('praw.models.comment_forest',
   '/home/kenny/.local/lib/python3.7/site-packages/praw/models/comment_forest.py',
   'PYMODULE'),
  ('praw.models.reddit.redditor',
   '/home/kenny/.local/lib/python3.7/site-packages/praw/models/reddit/redditor.py',
   'PYMODULE'),
  ('praw.models.reddit.multi',
   '/home/kenny/.local/lib/python3.7/site-packages/praw/models/reddit/multi.py',
   'PYMODULE'),
  ('praw.models.reddit.more',
   '/home/kenny/.local/lib/python3.7/site-packages/praw/models/reddit/more.py',
   'PYMODULE'),
  ('praw.models.reddit.modmail',
   '/home/kenny/.local/lib/python3.7/site-packages/praw/models/reddit/modmail.py',
   'PYMODULE'),
  ('praw.models.reddit.message',
   '/home/kenny/.local/lib/python3.7/site-packages/praw/models/reddit/message.py',
   'PYMODULE'),
  ('praw.models.reddit.live',
   '/home/kenny/.local/lib/python3.7/site-packages/praw/models/reddit/live.py',
   'PYMODULE'),
  ('praw.models.reddit.emoji',
   '/home/kenny/.local/lib/python3.7/site-packages/praw/models/reddit/emoji.py',
   'PYMODULE'),
  ('praw.models.reddit.comment',
   '/home/kenny/.local/lib/python3.7/site-packages/praw/models/reddit/comment.py',
   'PYMODULE'),
  ('praw.models.preferences',
   '/home/kenny/.local/lib/python3.7/site-packages/praw/models/preferences.py',
   'PYMODULE'),
  ('praw.models.modaction',
   '/home/kenny/.local/lib/python3.7/site-packages/praw/models/modaction.py',
   'PYMODULE'),
  ('praw.models.listing.listing',
   '/home/kenny/.local/lib/python3.7/site-packages/praw/models/listing/listing.py',
   'PYMODULE'),
  ('praw.models.listing.generator',
   '/home/kenny/.local/lib/python3.7/site-packages/praw/models/listing/generator.py',
   'PYMODULE'),
  ('praw.models.listing.domain',
   '/home/kenny/.local/lib/python3.7/site-packages/praw/models/listing/domain.py',
   'PYMODULE'),
  ('praw.models.list.redditor',
   '/home/kenny/.local/lib/python3.7/site-packages/praw/models/list/redditor.py',
   'PYMODULE'),
  ('praw.models.inbox',
   '/home/kenny/.local/lib/python3.7/site-packages/praw/models/inbox.py',
   'PYMODULE'),
  ('praw.models.helpers',
   '/home/kenny/.local/lib/python3.7/site-packages/praw/models/helpers.py',
   'PYMODULE'),
  ('praw.models.front',
   '/home/kenny/.local/lib/python3.7/site-packages/praw/models/front.py',
   'PYMODULE'),
  ('praw.models.auth',
   '/home/kenny/.local/lib/python3.7/site-packages/praw/models/auth.py',
   'PYMODULE'),
  ('praw.const',
   '/home/kenny/.local/lib/python3.7/site-packages/praw/const.py',
   'PYMODULE'),
  ('os', '/usr/lib/python3.7/os.py', 'PYMODULE')],
 [('libpython3.7m.so.1.0', '/usr/lib/libpython3.7m.so.1.0', 'BINARY'),
  ('ld-linux-x86-64.so.2', '/usr/lib64/ld-linux-x86-64.so.2', 'BINARY'),
  ('PyQt5/Qt/plugins/qmltooling/libqmldbg_debugger.so',
   '/usr/lib/qt/plugins/qmltooling/libqmldbg_debugger.so',
   'BINARY'),
  ('PyQt5/Qt/plugins/qmltooling/libqmldbg_native.so',
   '/usr/lib/qt/plugins/qmltooling/libqmldbg_native.so',
   'BINARY'),
  ('PyQt5/Qt/plugins/platforminputcontexts/libcomposeplatforminputcontextplugin.so',
   '/usr/lib/qt/plugins/platforminputcontexts/libcomposeplatforminputcontextplugin.so',
   'BINARY'),
  ('PyQt5/Qt/plugins/platforms/libqminimalegl.so',
   '/usr/lib/qt/plugins/platforms/libqminimalegl.so',
   'BINARY'),
  ('PyQt5/Qt/qml/QtQuick/LocalStorage/libqmllocalstorageplugin.so',
   '/usr/lib/qt/qml/QtQuick/LocalStorage/libqmllocalstorageplugin.so',
   'BINARY'),
  ('PyQt5/Qt/plugins/xcbglintegrations/libqxcb-egl-integration.so',
   '/usr/lib/qt/plugins/xcbglintegrations/libqxcb-egl-integration.so',
   'BINARY'),
  ('PyQt5/Qt/qml/QtPositioning/libdeclarative_positioning.so',
   '/usr/lib/qt/qml/QtPositioning/libdeclarative_positioning.so',
   'BINARY'),
  ('PyQt5/Qt/plugins/qmltooling/libqmldbg_nativedebugger.so',
   '/usr/lib/qt/plugins/qmltooling/libqmldbg_nativedebugger.so',
   'BINARY'),
  ('PyQt5/Qt/qml/Qt/labs/sharedimage/libsharedimageplugin.so',
   '/usr/lib/qt/qml/Qt/labs/sharedimage/libsharedimageplugin.so',
   'BINARY'),
  ('PyQt5/Qt/plugins/qmltooling/libqmldbg_messages.so',
   '/usr/lib/qt/plugins/qmltooling/libqmldbg_messages.so',
   'BINARY'),
  ('PyQt5/Qt/plugins/position/libqtposition_positionpoll.so',
   '/usr/lib/qt/plugins/position/libqtposition_positionpoll.so',
   'BINARY'),
  ('PyQt5/Qt/qml/Qt/labs/location/liblocationlabsplugin.so',
   '/usr/lib/qt/qml/Qt/labs/location/liblocationlabsplugin.so',
   'BINARY'),
  ('PyQt5/Qt/plugins/bearer/libqconnmanbearer.so',
   '/usr/lib/qt/plugins/bearer/libqconnmanbearer.so',
   'BINARY'),
  ('PyQt5/Qt/plugins/egldeviceintegrations/libqeglfs-kms-integration.so',
   '/usr/lib/qt/plugins/egldeviceintegrations/libqeglfs-kms-integration.so',
   'BINARY'),
  ('PyQt5/Qt/qml/Qt/labs/handlers/libhandlersplugin.so',
   '/usr/lib/qt/qml/Qt/labs/handlers/libhandlersplugin.so',
   'BINARY'),
  ('PyQt5/Qt/plugins/sensorgestures/libqtsensorgestures_shakeplugin.so',
   '/usr/lib/qt/plugins/sensorgestures/libqtsensorgestures_shakeplugin.so',
   'BINARY'),
  ('PyQt5/Qt/plugins/printsupport/libcupsprintersupport.so',
   '/usr/lib/qt/plugins/printsupport/libcupsprintersupport.so',
   'BINARY'),
  ('PyQt5/Qt/plugins/platforms/libqxcb.so',
   '/usr/lib/qt/plugins/platforms/libqxcb.so',
   'BINARY'),
  ('PyQt5/Qt/plugins/iconengines/libqsvgicon.so',
   '/usr/lib/qt/plugins/iconengines/libqsvgicon.so',
   'BINARY'),
  ('PyQt5/Qt/plugins/platformthemes/libqflatpak.so',
   '/usr/lib/qt/plugins/platformthemes/libqflatpak.so',
   'BINARY'),
  ('PyQt5/Qt/qml/QtQuick/XmlListModel/libqmlxmllistmodelplugin.so',
   '/usr/lib/qt/qml/QtQuick/XmlListModel/libqmlxmllistmodelplugin.so',
   'BINARY'),
  ('PyQt5/Qt/qml/QtSensors/libdeclarative_sensors.so',
   '/usr/lib/qt/qml/QtSensors/libdeclarative_sensors.so',
   'BINARY'),
  ('PyQt5/Qt/qml/QtQml/Models.2/libmodelsplugin.so',
   '/usr/lib/qt/qml/QtQml/Models.2/libmodelsplugin.so',
   'BINARY'),
  ('PyQt5/Qt/qml/QtWebKit/libqmlwebkitplugin.so',
   '/usr/lib/qt/qml/QtWebKit/libqmlwebkitplugin.so',
   'BINARY'),
  ('PyQt5/Qt/plugins/qmltooling/libqmldbg_local.so',
   '/usr/lib/qt/plugins/qmltooling/libqmldbg_local.so',
   'BINARY'),
  ('PyQt5/Qt/qml/QtLocation/libdeclarative_location.so',
   '/usr/lib/qt/qml/QtLocation/libdeclarative_location.so',
   'BINARY'),
  ('PyQt5/Qt/qml/Qt/labs/settings/libqmlsettingsplugin.so',
   '/usr/lib/qt/qml/Qt/labs/settings/libqmlsettingsplugin.so',
   'BINARY'),
  ('PyQt5/Qt/plugins/qmltooling/libqmldbg_server.so',
   '/usr/lib/qt/plugins/qmltooling/libqmldbg_server.so',
   'BINARY'),
  ('PyQt5/Qt/plugins/sensorgestures/libqtsensorgestures_plugin.so',
   '/usr/lib/qt/plugins/sensorgestures/libqtsensorgestures_plugin.so',
   'BINARY'),
  ('PyQt5/Qt/plugins/sensors/libqtsensors_linuxsys.so',
   '/usr/lib/qt/plugins/sensors/libqtsensors_linuxsys.so',
   'BINARY'),
  ('PyQt5/Qt/qml/QtQml/StateMachine/libqtqmlstatemachine.so',
   '/usr/lib/qt/qml/QtQml/StateMachine/libqtqmlstatemachine.so',
   'BINARY'),
  ('PyQt5/Qt/qml/QtWebKit/experimental/libqmlwebkitexperimentalplugin.so',
   '/usr/lib/qt/qml/QtWebKit/experimental/libqmlwebkitexperimentalplugin.so',
   'BINARY'),
  ('PyQt5/Qt/plugins/bearer/libqnmbearer.so',
   '/usr/lib/qt/plugins/bearer/libqnmbearer.so',
   'BINARY'),
  ('PyQt5/Qt/plugins/qmltooling/libqmldbg_tcp.so',
   '/usr/lib/qt/plugins/qmltooling/libqmldbg_tcp.so',
   'BINARY'),
  ('PyQt5/Qt/plugins/platforms/libqoffscreen.so',
   '/usr/lib/qt/plugins/platforms/libqoffscreen.so',
   'BINARY'),
  ('PyQt5/Qt/plugins/qmltooling/libqmldbg_inspector.so',
   '/usr/lib/qt/plugins/qmltooling/libqmldbg_inspector.so',
   'BINARY'),
  ('PyQt5/Qt/plugins/platforms/libqlinuxfb.so',
   '/usr/lib/qt/plugins/platforms/libqlinuxfb.so',
   'BINARY'),
  ('PyQt5/Qt/qml/Qt/labs/folderlistmodel/libqmlfolderlistmodelplugin.so',
   '/usr/lib/qt/qml/Qt/labs/folderlistmodel/libqmlfolderlistmodelplugin.so',
   'BINARY'),
  ('PyQt5/Qt/plugins/qmltooling/libqmldbg_quickprofiler.so',
   '/usr/lib/qt/plugins/qmltooling/libqmldbg_quickprofiler.so',
   'BINARY'),
  ('PyQt5/Qt/qml/QtTest/libqmltestplugin.so',
   '/usr/lib/qt/qml/QtTest/libqmltestplugin.so',
   'BINARY'),
  ('PyQt5/Qt/plugins/egldeviceintegrations/libqeglfs-emu-integration.so',
   '/usr/lib/qt/plugins/egldeviceintegrations/libqeglfs-emu-integration.so',
   'BINARY'),
  ('PyQt5/Qt/plugins/xcbglintegrations/libqxcb-glx-integration.so',
   '/usr/lib/qt/plugins/xcbglintegrations/libqxcb-glx-integration.so',
   'BINARY'),
  ('PyQt5/Qt/plugins/egldeviceintegrations/libqeglfs-kms-egldevice-integration.so',
   '/usr/lib/qt/plugins/egldeviceintegrations/libqeglfs-kms-egldevice-integration.so',
   'BINARY'),
  ('PyQt5/Qt/plugins/imageformats/libqico.so',
   '/usr/lib/qt/plugins/imageformats/libqico.so',
   'BINARY'),
  ('PyQt5/Qt/plugins/position/libqtposition_geoclue.so',
   '/usr/lib/qt/plugins/position/libqtposition_geoclue.so',
   'BINARY'),
  ('PyQt5/Qt/plugins/sensors/libqtsensors_generic.so',
   '/usr/lib/qt/plugins/sensors/libqtsensors_generic.so',
   'BINARY'),
  ('PyQt5/Qt/plugins/imageformats/libqsvg.so',
   '/usr/lib/qt/plugins/imageformats/libqsvg.so',
   'BINARY'),
  ('PyQt5/Qt/qml/QtQuick/Layouts/libqquicklayoutsplugin.so',
   '/usr/lib/qt/qml/QtQuick/Layouts/libqquicklayoutsplugin.so',
   'BINARY'),
  ('PyQt5/Qt/qml/QtWebChannel/libdeclarative_webchannel.so',
   '/usr/lib/qt/qml/QtWebChannel/libdeclarative_webchannel.so',
   'BINARY'),
  ('PyQt5/Qt/plugins/qmltooling/libqmldbg_profiler.so',
   '/usr/lib/qt/plugins/qmltooling/libqmldbg_profiler.so',
   'BINARY'),
  ('PyQt5/Qt/plugins/platforms/libqminimal.so',
   '/usr/lib/qt/plugins/platforms/libqminimal.so',
   'BINARY'),
  ('PyQt5/Qt/plugins/sensors/libqtsensors_iio-sensor-proxy.so',
   '/usr/lib/qt/plugins/sensors/libqtsensors_iio-sensor-proxy.so',
   'BINARY'),
  ('PyQt5/Qt/qml/QtQuick/Shapes/libqmlshapesplugin.so',
   '/usr/lib/qt/qml/QtQuick/Shapes/libqmlshapesplugin.so',
   'BINARY'),
  ('PyQt5/Qt/qml/QtQuick.2/libqtquick2plugin.so',
   '/usr/lib/qt/qml/QtQuick.2/libqtquick2plugin.so',
   'BINARY'),
  ('PyQt5/Qt/plugins/platforminputcontexts/libibusplatforminputcontextplugin.so',
   '/usr/lib/qt/plugins/platforminputcontexts/libibusplatforminputcontextplugin.so',
   'BINARY'),
  ('PyQt5/Qt/plugins/bearer/libqgenericbearer.so',
   '/usr/lib/qt/plugins/bearer/libqgenericbearer.so',
   'BINARY'),
  ('PyQt5/Qt/plugins/platformthemes/libqgtk3.so',
   '/usr/lib/qt/plugins/platformthemes/libqgtk3.so',
   'BINARY'),
  ('PyQt5/Qt/qml/QtQuick/Window.2/libwindowplugin.so',
   '/usr/lib/qt/qml/QtQuick/Window.2/libwindowplugin.so',
   'BINARY'),
  ('PyQt5/Qt/plugins/imageformats/libqgif.so',
   '/usr/lib/qt/plugins/imageformats/libqgif.so',
   'BINARY'),
  ('PyQt5/Qt/plugins/platforms/libqvnc.so',
   '/usr/lib/qt/plugins/platforms/libqvnc.so',
   'BINARY'),
  ('PyQt5/Qt/qml/QtQuick/Particles.2/libparticlesplugin.so',
   '/usr/lib/qt/qml/QtQuick/Particles.2/libparticlesplugin.so',
   'BINARY'),
  ('PyQt5/Qt/plugins/platforms/libqeglfs.so',
   '/usr/lib/qt/plugins/platforms/libqeglfs.so',
   'BINARY'),
  ('PyQt5/Qt/plugins/imageformats/libqjpeg.so',
   '/usr/lib/qt/plugins/imageformats/libqjpeg.so',
   'BINARY'),
  ('PyQt5/Qt/plugins/egldeviceintegrations/libqeglfs-x11-integration.so',
   '/usr/lib/qt/plugins/egldeviceintegrations/libqeglfs-x11-integration.so',
   'BINARY'),
  ('_multiprocessing',
   '/usr/lib/python3.7/lib-dynload/_multiprocessing.cpython-37m-x86_64-linux-gnu.so',
   'EXTENSION'),
  ('array',
   '/usr/lib/python3.7/lib-dynload/array.cpython-37m-x86_64-linux-gnu.so',
   'EXTENSION'),
  ('_queue',
   '/usr/lib/python3.7/lib-dynload/_queue.cpython-37m-x86_64-linux-gnu.so',
   'EXTENSION'),
  ('_contextvars',
   '/usr/lib/python3.7/lib-dynload/_contextvars.cpython-37m-x86_64-linux-gnu.so',
   'EXTENSION'),
  ('_decimal',
   '/usr/lib/python3.7/lib-dynload/_decimal.cpython-37m-x86_64-linux-gnu.so',
   'EXTENSION'),
  ('mmap',
   '/usr/lib/python3.7/lib-dynload/mmap.cpython-37m-x86_64-linux-gnu.so',
   'EXTENSION'),
  ('_ctypes',
   '/usr/lib/python3.7/lib-dynload/_ctypes.cpython-37m-x86_64-linux-gnu.so',
   'EXTENSION'),
  ('resource',
   '/usr/lib/python3.7/lib-dynload/resource.cpython-37m-x86_64-linux-gnu.so',
   'EXTENSION'),
  ('_posixsubprocess',
   '/usr/lib/python3.7/lib-dynload/_posixsubprocess.cpython-37m-x86_64-linux-gnu.so',
   'EXTENSION'),
  ('_pickle',
   '/usr/lib/python3.7/lib-dynload/_pickle.cpython-37m-x86_64-linux-gnu.so',
   'EXTENSION'),
  ('_datetime',
   '/usr/lib/python3.7/lib-dynload/_datetime.cpython-37m-x86_64-linux-gnu.so',
   'EXTENSION'),
  ('_ssl',
   '/usr/lib/python3.7/lib-dynload/_ssl.cpython-37m-x86_64-linux-gnu.so',
   'EXTENSION'),
  ('_heapq',
   '/usr/lib/python3.7/lib-dynload/_heapq.cpython-37m-x86_64-linux-gnu.so',
   'EXTENSION'),
  ('_opcode',
   '/usr/lib/python3.7/lib-dynload/_opcode.cpython-37m-x86_64-linux-gnu.so',
   'EXTENSION'),
  ('readline',
   '/usr/lib/python3.7/lib-dynload/readline.cpython-37m-x86_64-linux-gnu.so',
   'EXTENSION'),
  ('pyexpat',
   '/usr/lib/python3.7/lib-dynload/pyexpat.cpython-37m-x86_64-linux-gnu.so',
   'EXTENSION'),
  ('termios',
   '/usr/lib/python3.7/lib-dynload/termios.cpython-37m-x86_64-linux-gnu.so',
   'EXTENSION'),
  ('_sha1',
   '/usr/lib/python3.7/lib-dynload/_sha1.cpython-37m-x86_64-linux-gnu.so',
   'EXTENSION'),
  ('_md5',
   '/usr/lib/python3.7/lib-dynload/_md5.cpython-37m-x86_64-linux-gnu.so',
   'EXTENSION'),
  ('_sha256',
   '/usr/lib/python3.7/lib-dynload/_sha256.cpython-37m-x86_64-linux-gnu.so',
   'EXTENSION'),
  ('_sha512',
   '/usr/lib/python3.7/lib-dynload/_sha512.cpython-37m-x86_64-linux-gnu.so',
   'EXTENSION'),
  ('_blake2',
   '/usr/lib/python3.7/lib-dynload/_blake2.cpython-37m-x86_64-linux-gnu.so',
   'EXTENSION'),
  ('_sha3',
   '/usr/lib/python3.7/lib-dynload/_sha3.cpython-37m-x86_64-linux-gnu.so',
   'EXTENSION'),
  ('_hashlib',
   '/usr/lib/python3.7/lib-dynload/_hashlib.cpython-37m-x86_64-linux-gnu.so',
   'EXTENSION'),
  ('_bisect',
   '/usr/lib/python3.7/lib-dynload/_bisect.cpython-37m-x86_64-linux-gnu.so',
   'EXTENSION'),
  ('_random',
   '/usr/lib/python3.7/lib-dynload/_random.cpython-37m-x86_64-linux-gnu.so',
   'EXTENSION'),
  ('_lzma',
   '/usr/lib/python3.7/lib-dynload/_lzma.cpython-37m-x86_64-linux-gnu.so',
   'EXTENSION'),
  ('grp',
   '/usr/lib/python3.7/lib-dynload/grp.cpython-37m-x86_64-linux-gnu.so',
   'EXTENSION'),
  ('_socket',
   '/usr/lib/python3.7/lib-dynload/_socket.cpython-37m-x86_64-linux-gnu.so',
   'EXTENSION'),
  ('_bz2',
   '/usr/lib/python3.7/lib-dynload/_bz2.cpython-37m-x86_64-linux-gnu.so',
   'EXTENSION'),
  ('_codecs_hk',
   '/usr/lib/python3.7/lib-dynload/_codecs_hk.cpython-37m-x86_64-linux-gnu.so',
   'EXTENSION'),
  ('_codecs_tw',
   '/usr/lib/python3.7/lib-dynload/_codecs_tw.cpython-37m-x86_64-linux-gnu.so',
   'EXTENSION'),
  ('_codecs_jp',
   '/usr/lib/python3.7/lib-dynload/_codecs_jp.cpython-37m-x86_64-linux-gnu.so',
   'EXTENSION'),
  ('_codecs_kr',
   '/usr/lib/python3.7/lib-dynload/_codecs_kr.cpython-37m-x86_64-linux-gnu.so',
   'EXTENSION'),
  ('_codecs_cn',
   '/usr/lib/python3.7/lib-dynload/_codecs_cn.cpython-37m-x86_64-linux-gnu.so',
   'EXTENSION'),
  ('unicodedata',
   '/usr/lib/python3.7/lib-dynload/unicodedata.cpython-37m-x86_64-linux-gnu.so',
   'EXTENSION'),
  ('zlib',
   '/usr/lib/python3.7/lib-dynload/zlib.cpython-37m-x86_64-linux-gnu.so',
   'EXTENSION'),
  ('binascii',
   '/usr/lib/python3.7/lib-dynload/binascii.cpython-37m-x86_64-linux-gnu.so',
   'EXTENSION'),
  ('_codecs_iso2022',
   '/usr/lib/python3.7/lib-dynload/_codecs_iso2022.cpython-37m-x86_64-linux-gnu.so',
   'EXTENSION'),
  ('_multibytecodec',
   '/usr/lib/python3.7/lib-dynload/_multibytecodec.cpython-37m-x86_64-linux-gnu.so',
   'EXTENSION'),
  ('select',
   '/usr/lib/python3.7/lib-dynload/select.cpython-37m-x86_64-linux-gnu.so',
   'EXTENSION'),
  ('math',
   '/usr/lib/python3.7/lib-dynload/math.cpython-37m-x86_64-linux-gnu.so',
   'EXTENSION'),
  ('_struct',
   '/usr/lib/python3.7/lib-dynload/_struct.cpython-37m-x86_64-linux-gnu.so',
   'EXTENSION'),
  ('_json',
   '/usr/lib/python3.7/lib-dynload/_json.cpython-37m-x86_64-linux-gnu.so',
   'EXTENSION'),
  ('PIL._imagingtk',
   '/usr/lib/python3.7/site-packages/PIL/_imagingtk.cpython-37m-x86_64-linux-gnu.so',
   'EXTENSION'),
  ('PIL._webp',
   '/usr/lib/python3.7/site-packages/PIL/_webp.cpython-37m-x86_64-linux-gnu.so',
   'EXTENSION'),
  ('numpy.core._multiarray_tests',
   '/usr/lib/python3.7/site-packages/numpy/core/_multiarray_tests.cpython-37m-x86_64-linux-gnu.so',
   'EXTENSION'),
  ('numpy.core.multiarray',
   '/usr/lib/python3.7/site-packages/numpy/core/multiarray.cpython-37m-x86_64-linux-gnu.so',
   'EXTENSION'),
  ('numpy.core.umath',
   '/usr/lib/python3.7/site-packages/numpy/core/umath.cpython-37m-x86_64-linux-gnu.so',
   'EXTENSION'),
  ('syslog',
   '/usr/lib/python3.7/lib-dynload/syslog.cpython-37m-x86_64-linux-gnu.so',
   'EXTENSION'),
  ('_curses',
   '/usr/lib/python3.7/lib-dynload/_curses.cpython-37m-x86_64-linux-gnu.so',
   'EXTENSION'),
  ('numpy.random.mtrand',
   '/usr/lib/python3.7/site-packages/numpy/random/mtrand.cpython-37m-x86_64-linux-gnu.so',
   'EXTENSION'),
  ('numpy.fft.fftpack_lite',
   '/usr/lib/python3.7/site-packages/numpy/fft/fftpack_lite.cpython-37m-x86_64-linux-gnu.so',
   'EXTENSION'),
  ('numpy.linalg._umath_linalg',
   '/usr/lib/python3.7/site-packages/numpy/linalg/_umath_linalg.cpython-37m-x86_64-linux-gnu.so',
   'EXTENSION'),
  ('numpy.linalg.lapack_lite',
   '/usr/lib/python3.7/site-packages/numpy/linalg/lapack_lite.cpython-37m-x86_64-linux-gnu.so',
   'EXTENSION'),
  ('PIL._imaging',
   '/usr/lib/python3.7/site-packages/PIL/_imaging.cpython-37m-x86_64-linux-gnu.so',
   'EXTENSION'),
  ('PyQt5.QtWebKitWidgets',
   '/usr/lib/python3.7/site-packages/PyQt5/QtWebKitWidgets.so',
   'EXTENSION'),
  ('PyQt5.QtQuick',
   '/usr/lib/python3.7/site-packages/PyQt5/QtQuick.so',
   'EXTENSION'),
  ('PyQt5.QtPrintSupport',
   '/usr/lib/python3.7/site-packages/PyQt5/QtPrintSupport.so',
   'EXTENSION'),
  ('PyQt5.QtNetwork',
   '/usr/lib/python3.7/site-packages/PyQt5/QtNetwork.so',
   'EXTENSION'),
  ('PyQt5.QtQml',
   '/usr/lib/python3.7/site-packages/PyQt5/QtQml.so',
   'EXTENSION'),
  ('PyQt5.QtWebChannel',
   '/usr/lib/python3.7/site-packages/PyQt5/QtWebChannel.so',
   'EXTENSION'),
  ('PyQt5.QtPositioning',
   '/usr/lib/python3.7/site-packages/PyQt5/QtPositioning.so',
   'EXTENSION'),
  ('PyQt5.QtSensors',
   '/usr/lib/python3.7/site-packages/PyQt5/QtSensors.so',
   'EXTENSION'),
  ('PyQt5.QtWebKit',
   '/usr/lib/python3.7/site-packages/PyQt5/QtWebKit.so',
   'EXTENSION'),
  ('PyQt5.QtWidgets',
   '/usr/lib/python3.7/site-packages/PyQt5/QtWidgets.so',
   'EXTENSION'),
  ('PyQt5.QtGui',
   '/usr/lib/python3.7/site-packages/PyQt5/QtGui.so',
   'EXTENSION'),
  ('PyQt5.QtCore',
   '/usr/lib/python3.7/site-packages/PyQt5/QtCore.so',
   'EXTENSION'),
  ('PyQt5.sip', '/usr/lib/python3.7/site-packages/PyQt5/sip.so', 'EXTENSION'),
  ('libgcc_s.so.1', '/usr/lib/libgcc_s.so.1', 'BINARY'),
  ('libpcre2-16.so.0', '/usr/lib/libpcre2-16.so.0', 'BINARY'),
  ('libglib-2.0.so.0', '/usr/lib/libglib-2.0.so.0', 'BINARY'),
  ('libz.so.1', '/usr/lib/libz.so.1', 'BINARY'),
  ('libQt5Qml.so.5', '/usr/lib/libQt5Qml.so.5', 'BINARY'),
  ('libdouble-conversion.so.3.0.0',
   '/usr/lib/libdouble-conversion.so.3.0.0',
   'BINARY'),
  ('liblzma.so.5', '/usr/lib/liblzma.so.5', 'BINARY'),
  ('libicuuc.so.62', '/usr/lib/libicuuc.so.62', 'BINARY'),
  ('libgpg-error.so.0', '/usr/lib/libgpg-error.so.0', 'BINARY'),
  ('liblz4.so.1', '/usr/lib/liblz4.so.1', 'BINARY'),
  ('libstdc++.so.6', '/usr/lib/libstdc++.so.6', 'BINARY'),
  ('libssl.so.1.1', '/usr/lib/libssl.so.1.1', 'BINARY'),
  ('libicudata.so.62', '/usr/lib/libicudata.so.62', 'BINARY'),
  ('libQt5Network.so.5', '/usr/lib/libQt5Network.so.5', 'BINARY'),
  ('libcrypto.so.1.1', '/usr/lib/libcrypto.so.1.1', 'BINARY'),
  ('libicui18n.so.62', '/usr/lib/libicui18n.so.62', 'BINARY'),
  ('libgcrypt.so.20', '/usr/lib/libgcrypt.so.20', 'BINARY'),
  ('libQt5Core.so.5', '/usr/lib/libQt5Core.so.5', 'BINARY'),
  ('libsystemd.so.0', '/usr/lib/libsystemd.so.0', 'BINARY'),
  ('libpcre.so.1', '/usr/lib/libpcre.so.1', 'BINARY'),
  ('libXext.so.6', '/usr/lib/libXext.so.6', 'BINARY'),
  ('libbz2.so.1.0', '/usr/lib/libbz2.so.1.0', 'BINARY'),
  ('libQt5Gui.so.5', '/usr/lib/libQt5Gui.so.5', 'BINARY'),
  ('libGLdispatch.so.0', '/usr/lib/libGLdispatch.so.0', 'BINARY'),
  ('libX11.so.6', '/usr/lib/libX11.so.6', 'BINARY'),
  ('libXdmcp.so.6', '/usr/lib/libXdmcp.so.6', 'BINARY'),
  ('libpng16.so.16', '/usr/lib/libpng16.so.16', 'BINARY'),
  ('libgraphite2.so.3', '/usr/lib/libgraphite2.so.3', 'BINARY'),
  ('libxkbcommon.so.0', '/usr/lib/libxkbcommon.so.0', 'BINARY'),
  ('libGLX.so.0', '/usr/lib/libGLX.so.0', 'BINARY'),
  ('libfreetype.so.6', '/usr/lib/libfreetype.so.6', 'BINARY'),
  ('libharfbuzz.so.0', '/usr/lib/libharfbuzz.so.0', 'BINARY'),
  ('libXau.so.6', '/usr/lib/libXau.so.6', 'BINARY'),
  ('libEGL.so.1', '/usr/lib/libEGL.so.1', 'BINARY'),
  ('libuuid.so.1', '/usr/lib/libuuid.so.1', 'BINARY'),
  ('libfontconfig.so.1', '/usr/lib/libfontconfig.so.1', 'BINARY'),
  ('libexpat.so.1', '/usr/lib/libexpat.so.1', 'BINARY'),
  ('libQt5Sql.so.5', '/usr/lib/libQt5Sql.so.5', 'BINARY'),
  ('libxcb-image.so.0', '/usr/lib/libxcb-image.so.0', 'BINARY'),
  ('libxcb-sync.so.1', '/usr/lib/libxcb-sync.so.1', 'BINARY'),
  ('libXrender.so.1', '/usr/lib/libXrender.so.1', 'BINARY'),
  ('libxcb-icccm.so.4', '/usr/lib/libxcb-icccm.so.4', 'BINARY'),
  ('libxcb-shm.so.0', '/usr/lib/libxcb-shm.so.0', 'BINARY'),
  ('libX11-xcb.so.1', '/usr/lib/libX11-xcb.so.1', 'BINARY'),
  ('libxcb-render-util.so.0', '/usr/lib/libxcb-render-util.so.0', 'BINARY'),
  ('libxcb-util.so.1', '/usr/lib/libxcb-util.so.1', 'BINARY'),
  ('libxcb-keysyms.so.1', '/usr/lib/libxcb-keysyms.so.1', 'BINARY'),
  ('libQt5XcbQpa.so.5', '/usr/lib/libQt5XcbQpa.so.5', 'BINARY'),
  ('libxcb-xinerama.so.0', '/usr/lib/libxcb-xinerama.so.0', 'BINARY'),
  ('libxkbcommon-x11.so.0', '/usr/lib/libxkbcommon-x11.so.0', 'BINARY'),
  ('libxcb-shape.so.0', '/usr/lib/libxcb-shape.so.0', 'BINARY'),
  ('libICE.so.6', '/usr/lib/libICE.so.6', 'BINARY'),
  ('libxcb-xkb.so.1', '/usr/lib/libxcb-xkb.so.1', 'BINARY'),
  ('libSM.so.6', '/usr/lib/libSM.so.6', 'BINARY'),
  ('libdbus-1.so.3', '/usr/lib/libdbus-1.so.3', 'BINARY'),
  ('libxcb-xfixes.so.0', '/usr/lib/libxcb-xfixes.so.0', 'BINARY'),
  ('libxcb-randr.so.0', '/usr/lib/libxcb-randr.so.0', 'BINARY'),
  ('libQt5DBus.so.5', '/usr/lib/libQt5DBus.so.5', 'BINARY'),
  ('libxcb-render.so.0', '/usr/lib/libxcb-render.so.0', 'BINARY'),
  ('libXi.so.6', '/usr/lib/libXi.so.6', 'BINARY'),
  ('libQt5Positioning.so.5', '/usr/lib/libQt5Positioning.so.5', 'BINARY'),
  ('libQt5Quick.so.5', '/usr/lib/libQt5Quick.so.5', 'BINARY'),
  ('libQt5PositioningQuick.so.5',
   '/usr/lib/libQt5PositioningQuick.so.5',
   'BINARY'),
  ('libQt5Location.so.5', '/usr/lib/libQt5Location.so.5', 'BINARY'),
  ('libts.so.0', '/usr/lib/libts.so.0', 'BINARY'),
  ('libdrm.so.2', '/usr/lib/libdrm.so.2', 'BINARY'),
  ('libinput.so.10', '/usr/lib/libinput.so.10', 'BINARY'),
  ('libevdev.so.2', '/usr/lib/libevdev.so.2', 'BINARY'),
  ('libgudev-1.0.so.0', '/usr/lib/libgudev-1.0.so.0', 'BINARY'),
  ('libgbm.so.1', '/usr/lib/libgbm.so.1', 'BINARY'),
  ('libQt5EglFsKmsSupport.so.5',
   '/usr/lib/libQt5EglFsKmsSupport.so.5',
   'BINARY'),
  ('libmtdev.so.1', '/usr/lib/libmtdev.so.1', 'BINARY'),
  ('libffi.so.6', '/usr/lib/libffi.so.6', 'BINARY'),
  ('libwayland-server.so.0', '/usr/lib/libwayland-server.so.0', 'BINARY'),
  ('libgobject-2.0.so.0', '/usr/lib/libgobject-2.0.so.0', 'BINARY'),
  ('libwacom.so.2', '/usr/lib/libwacom.so.2', 'BINARY'),
  ('libudev.so.1', '/usr/lib/libudev.so.1', 'BINARY'),
  ('libQt5EglFSDeviceIntegration.so.5',
   '/usr/lib/libQt5EglFSDeviceIntegration.so.5',
   'BINARY'),
  ('libQt5Sensors.so.5', '/usr/lib/libQt5Sensors.so.5', 'BINARY'),
  ('libQt5Widgets.so.5', '/usr/lib/libQt5Widgets.so.5', 'BINARY'),
  ('libkrb5.so.3', '/usr/lib/libkrb5.so.3', 'BINARY'),
  ('libgssapi_krb5.so.2', '/usr/lib/libgssapi_krb5.so.2', 'BINARY'),
  ('libidn2.so.0', '/usr/lib/libidn2.so.0', 'BINARY'),
  ('libhogweed.so.4', '/usr/lib/libhogweed.so.4', 'BINARY'),
  ('libkrb5support.so.0', '/usr/lib/libkrb5support.so.0', 'BINARY'),
  ('libnettle.so.6', '/usr/lib/libnettle.so.6', 'BINARY'),
  ('libp11-kit.so.0', '/usr/lib/libp11-kit.so.0', 'BINARY'),
  ('libcups.so.2', '/usr/lib/libcups.so.2', 'BINARY'),
  ('libcom_err.so.2', '/usr/lib/libcom_err.so.2', 'BINARY'),
  ('libtasn1.so.6', '/usr/lib/libtasn1.so.6', 'BINARY'),
  ('libunistring.so.2', '/usr/lib/libunistring.so.2', 'BINARY'),
  ('libkeyutils.so.1', '/usr/lib/libkeyutils.so.1', 'BINARY'),
  ('libgnutls.so.30', '/usr/lib/libgnutls.so.30', 'BINARY'),
  ('libavahi-common.so.3', '/usr/lib/libavahi-common.so.3', 'BINARY'),
  ('libavahi-client.so.3', '/usr/lib/libavahi-client.so.3', 'BINARY'),
  ('libgmp.so.10', '/usr/lib/libgmp.so.10', 'BINARY'),
  ('libQt5PrintSupport.so.5', '/usr/lib/libQt5PrintSupport.so.5', 'BINARY'),
  ('libk5crypto.so.3', '/usr/lib/libk5crypto.so.3', 'BINARY'),
  ('libQt5Svg.so.5', '/usr/lib/libQt5Svg.so.5', 'BINARY'),
  ('libQt5XmlPatterns.so.5', '/usr/lib/libQt5XmlPatterns.so.5', 'BINARY'),
  ('libwebp.so.7', '/usr/lib/libwebp.so.7', 'BINARY'),
  ('libelf.so.1', '/usr/lib/libelf.so.1', 'BINARY'),
  ('libgstapp-1.0.so.0', '/usr/lib/libgstapp-1.0.so.0', 'BINARY'),
  ('libgstreamer-1.0.so.0', '/usr/lib/libgstreamer-1.0.so.0', 'BINARY'),
  ('libhyphen.so.0', '/usr/lib/libhyphen.so.0', 'BINARY'),
  ('libsqlite3.so.0', '/usr/lib/libsqlite3.so.0', 'BINARY'),
  ('libQt5WebChannel.so.5', '/usr/lib/libQt5WebChannel.so.5', 'BINARY'),
  ('libgstbase-1.0.so.0', '/usr/lib/libgstbase-1.0.so.0', 'BINARY'),
  ('libxslt.so.1', '/usr/lib/libxslt.so.1', 'BINARY'),
  ('libgsttag-1.0.so.0', '/usr/lib/libgsttag-1.0.so.0', 'BINARY'),
  ('libgio-2.0.so.0', '/usr/lib/libgio-2.0.so.0', 'BINARY'),
  ('libgstfft-1.0.so.0', '/usr/lib/libgstfft-1.0.so.0', 'BINARY'),
  ('libgstpbutils-1.0.so.0', '/usr/lib/libgstpbutils-1.0.so.0', 'BINARY'),
  ('libQt5WebKit.so.5', '/usr/lib/libQt5WebKit.so.5', 'BINARY'),
  ('libgstaudio-1.0.so.0', '/usr/lib/libgstaudio-1.0.so.0', 'BINARY'),
  ('libblkid.so.1', '/usr/lib/libblkid.so.1', 'BINARY'),
  ('libunwind.so.8', '/usr/lib/libunwind.so.8', 'BINARY'),
  ('libjpeg.so.8', '/usr/lib/libjpeg.so.8', 'BINARY'),
  ('libgstvideo-1.0.so.0', '/usr/lib/libgstvideo-1.0.so.0', 'BINARY'),
  ('liborc-0.4.so.0', '/usr/lib/liborc-0.4.so.0', 'BINARY'),
  ('libgmodule-2.0.so.0', '/usr/lib/libgmodule-2.0.so.0', 'BINARY'),
  ('libdw.so.1', '/usr/lib/libdw.so.1', 'BINARY'),
  ('libxml2.so.2', '/usr/lib/libxml2.so.2', 'BINARY'),
  ('libmount.so.1', '/usr/lib/libmount.so.1', 'BINARY'),
  ('libQt5Test.so.5', '/usr/lib/libQt5Test.so.5', 'BINARY'),
  ('libQt5QuickTest.so.5', '/usr/lib/libQt5QuickTest.so.5', 'BINARY'),
  ('libxcb-glx.so.0', '/usr/lib/libxcb-glx.so.0', 'BINARY'),
  ('libwayland-egl.so.1', '/usr/lib/libwayland-egl.so.1', 'BINARY'),
  ('libatspi.so.0', '/usr/lib/libatspi.so.0', 'BINARY'),
  ('libatk-1.0.so.0', '/usr/lib/libatk-1.0.so.0', 'BINARY'),
  ('libXfixes.so.3', '/usr/lib/libXfixes.so.3', 'BINARY'),
  ('libatk-bridge-2.0.so.0', '/usr/lib/libatk-bridge-2.0.so.0', 'BINARY'),
  ('libXdamage.so.1', '/usr/lib/libXdamage.so.1', 'BINARY'),
  ('libXcomposite.so.1', '/usr/lib/libXcomposite.so.1', 'BINARY'),
  ('libgdk_pixbuf-2.0.so.0', '/usr/lib/libgdk_pixbuf-2.0.so.0', 'BINARY'),
  ('libepoxy.so.0', '/usr/lib/libepoxy.so.0', 'BINARY'),
  ('libpixman-1.so.0', '/usr/lib/libpixman-1.so.0', 'BINARY'),
  ('libfribidi.so.0', '/usr/lib/libfribidi.so.0', 'BINARY'),
  ('libpangoft2-1.0.so.0', '/usr/lib/libpangoft2-1.0.so.0', 'BINARY'),
  ('libpangocairo-1.0.so.0', '/usr/lib/libpangocairo-1.0.so.0', 'BINARY'),
  ('libcairo-gobject.so.2', '/usr/lib/libcairo-gobject.so.2', 'BINARY'),
  ('libgtk-3.so.0', '/usr/lib/libgtk-3.so.0', 'BINARY'),
  ('libcairo.so.2', '/usr/lib/libcairo.so.2', 'BINARY'),
  ('libXcursor.so.1', '/usr/lib/libXcursor.so.1', 'BINARY'),
  ('libwayland-client.so.0', '/usr/lib/libwayland-client.so.0', 'BINARY'),
  ('libwayland-cursor.so.0', '/usr/lib/libwayland-cursor.so.0', 'BINARY'),
  ('libthai.so.0', '/usr/lib/libthai.so.0', 'BINARY'),
  ('libXrandr.so.2', '/usr/lib/libXrandr.so.2', 'BINARY'),
  ('libXinerama.so.1', '/usr/lib/libXinerama.so.1', 'BINARY'),
  ('libgdk-3.so.0', '/usr/lib/libgdk-3.so.0', 'BINARY'),
  ('libdatrie.so.1', '/usr/lib/libdatrie.so.1', 'BINARY'),
  ('libpango-1.0.so.0', '/usr/lib/libpango-1.0.so.0', 'BINARY'),
  ('libQt5QuickParticles.so.5', '/usr/lib/libQt5QuickParticles.so.5', 'BINARY'),
  ('libreadline.so.7', '/usr/lib/libreadline.so.7', 'BINARY'),
  ('libncursesw.so.6', '/usr/lib/libncursesw.so.6', 'BINARY'),
  ('libwebpmux.so.3', '/usr/lib/libwebpmux.so.3', 'BINARY'),
  ('libwebpdemux.so.2', '/usr/lib/libwebpdemux.so.2', 'BINARY'),
  ('libgfortran.so.5', '/usr/lib/libgfortran.so.5', 'BINARY'),
  ('libcblas.so.3', '/usr/lib/libcblas.so.3', 'BINARY'),
  ('libblas.so.3', '/usr/lib/libblas.so.3', 'BINARY'),
  ('libquadmath.so.0', '/usr/lib/../lib/libquadmath.so.0', 'BINARY'),
  ('liblapack.so.3', '/usr/lib/liblapack.so.3', 'BINARY'),
  ('libtiff.so.5', '/usr/lib/libtiff.so.5', 'BINARY'),
  ('libopenjp2.so.7', '/usr/lib/libopenjp2.so.7', 'BINARY'),
  ('libQt5WebKitWidgets.so.5', '/usr/lib/libQt5WebKitWidgets.so.5', 'BINARY')],
 [],
 [],
 [('base_library.zip',
   '/home/kenny/git/Redid/build/Redid/base_library.zip',
   'DATA'),
  ('PyQt5/Qt/qml/QtTest/plugins.qmltypes',
   '/usr/lib/qt/qml/QtTest/plugins.qmltypes',
   'DATA'),
  ('PyQt5/Qt/qml/QtQuick/Window.2/plugins.qmltypes',
   '/usr/lib/qt/qml/QtQuick/Window.2/plugins.qmltypes',
   'DATA'),
  ('PyQt5/Qt/qml/QtWebChannel/plugins.qmltypes',
   '/usr/lib/qt/qml/QtWebChannel/plugins.qmltypes',
   'DATA'),
  ('PyQt5/Qt/qml/QtQuick/LocalStorage/libqmllocalstorageplugin.so',
   '/usr/lib/qt/qml/QtQuick/LocalStorage/libqmllocalstorageplugin.so',
   'DATA'),
  ('PyQt5/Qt/qml/QtPositioning/libdeclarative_positioning.so',
   '/usr/lib/qt/qml/QtPositioning/libdeclarative_positioning.so',
   'DATA'),
  ('PyQt5/Qt/qml/Qt/labs/folderlistmodel/plugins.qmltypes',
   '/usr/lib/qt/qml/Qt/labs/folderlistmodel/plugins.qmltypes',
   'DATA'),
  ('lib2to3/PatternGrammar3.7.0.final.0.pickle',
   '/usr/lib/python3.7/lib2to3/PatternGrammar3.7.0.final.0.pickle',
   'DATA'),
  ('PyQt5/Qt/qml/QtLocation/qmldir',
   '/usr/lib/qt/qml/QtLocation/qmldir',
   'DATA'),
  ('PyQt5/Qt/qml/QtQuick.2/plugins.qmltypes',
   '/usr/lib/qt/qml/QtQuick.2/plugins.qmltypes',
   'DATA'),
  ('PyQt5/Qt/qml/QtWebKit/plugins.qmltypes',
   '/usr/lib/qt/qml/QtWebKit/plugins.qmltypes',
   'DATA'),
  ('PyQt5/Qt/qml/QtQml/StateMachine/qmldir',
   '/usr/lib/qt/qml/QtQml/StateMachine/qmldir',
   'DATA'),
  ('PyQt5/Qt/qml/QtQml/Models.2/plugins.qmltypes',
   '/usr/lib/qt/qml/QtQml/Models.2/plugins.qmltypes',
   'DATA'),
  ('PyQt5/Qt/qml/Qt/labs/sharedimage/libsharedimageplugin.so',
   '/usr/lib/qt/qml/Qt/labs/sharedimage/libsharedimageplugin.so',
   'DATA'),
  ('lib/python3.7/config-3.7m-x86_64-linux-gnu/Makefile',
   '/usr/lib/python3.7/config-3.7m-x86_64-linux-gnu/Makefile',
   'DATA'),
  ('PyQt5/Qt/qml/QtLocation/plugins.qmltypes',
   '/usr/lib/qt/qml/QtLocation/plugins.qmltypes',
   'DATA'),
  ('PyQt5/Qt/qml/Qt/labs/folderlistmodel/qmldir',
   '/usr/lib/qt/qml/Qt/labs/folderlistmodel/qmldir',
   'DATA'),
  ('PyQt5/Qt/qml/Qt/labs/settings/plugins.qmltypes',
   '/usr/lib/qt/qml/Qt/labs/settings/plugins.qmltypes',
   'DATA'),
  ('PyQt5/Qt/qml/QtWebKit/experimental/qmldir',
   '/usr/lib/qt/qml/QtWebKit/experimental/qmldir',
   'DATA'),
  ('PyQt5/Qt/qml/Qt/labs/location/liblocationlabsplugin.so',
   '/usr/lib/qt/qml/Qt/labs/location/liblocationlabsplugin.so',
   'DATA'),
  ('PyQt5/Qt/qml/QtQuick/Layouts/plugins.qmltypes',
   '/usr/lib/qt/qml/QtQuick/Layouts/plugins.qmltypes',
   'DATA'),
  ('PyQt5/Qt/qml/Qt/labs/handlers/libhandlersplugin.so',
   '/usr/lib/qt/qml/Qt/labs/handlers/libhandlersplugin.so',
   'DATA'),
  ('PyQt5/Qt/qml/QtQuick.2/qmldir', '/usr/lib/qt/qml/QtQuick.2/qmldir', 'DATA'),
  ('PyQt5/Qt/qml/Qt/labs/sharedimage/plugins.qmltypes',
   '/usr/lib/qt/qml/Qt/labs/sharedimage/plugins.qmltypes',
   'DATA'),
  ('PyQt5/Qt/qml/QtQuick/Layouts/qmldir',
   '/usr/lib/qt/qml/QtQuick/Layouts/qmldir',
   'DATA'),
  ('lib2to3/Grammar3.7.0.final.0.pickle',
   '/usr/lib/python3.7/lib2to3/Grammar3.7.0.final.0.pickle',
   'DATA'),
  ('PyQt5/Qt/qml/Qt/labs/sharedimage/qmldir',
   '/usr/lib/qt/qml/Qt/labs/sharedimage/qmldir',
   'DATA'),
  ('PyQt5/Qt/qml/QtQuick/XmlListModel/libqmlxmllistmodelplugin.so',
   '/usr/lib/qt/qml/QtQuick/XmlListModel/libqmlxmllistmodelplugin.so',
   'DATA'),
  ('PyQt5/Qt/qml/QtSensors/libdeclarative_sensors.so',
   '/usr/lib/qt/qml/QtSensors/libdeclarative_sensors.so',
   'DATA'),
  ('PyQt5/Qt/qml/QtQml/StateMachine/plugins.qmltypes',
   '/usr/lib/qt/qml/QtQml/StateMachine/plugins.qmltypes',
   'DATA'),
  ('PyQt5/Qt/qml/QtQuick/Window.2/qmldir',
   '/usr/lib/qt/qml/QtQuick/Window.2/qmldir',
   'DATA'),
  ('PyQt5/Qt/qml/QtQuick/Particles.2/plugins.qmltypes',
   '/usr/lib/qt/qml/QtQuick/Particles.2/plugins.qmltypes',
   'DATA'),
  ('PyQt5/Qt/qml/QtWebKit/qmldir', '/usr/lib/qt/qml/QtWebKit/qmldir', 'DATA'),
  ('PyQt5/Qt/qml/Qt/labs/handlers/plugins.qmltypes',
   '/usr/lib/qt/qml/Qt/labs/handlers/plugins.qmltypes',
   'DATA'),
  ('PyQt5/Qt/qml/QtQml/Models.2/libmodelsplugin.so',
   '/usr/lib/qt/qml/QtQml/Models.2/libmodelsplugin.so',
   'DATA'),
  ('PyQt5/Qt/qml/QtWebKit/libqmlwebkitplugin.so',
   '/usr/lib/qt/qml/QtWebKit/libqmlwebkitplugin.so',
   'DATA'),
  ('PyQt5/Qt/qml/QtLocation/libdeclarative_location.so',
   '/usr/lib/qt/qml/QtLocation/libdeclarative_location.so',
   'DATA'),
  ('PyQt5/Qt/qml/Qt/labs/settings/libqmlsettingsplugin.so',
   '/usr/lib/qt/qml/Qt/labs/settings/libqmlsettingsplugin.so',
   'DATA'),
  ('PyQt5/Qt/qml/QtQml/StateMachine/libqtqmlstatemachine.so',
   '/usr/lib/qt/qml/QtQml/StateMachine/libqtqmlstatemachine.so',
   'DATA'),
  ('PyQt5/Qt/qml/QtWebKit/experimental/libqmlwebkitexperimentalplugin.so',
   '/usr/lib/qt/qml/QtWebKit/experimental/libqmlwebkitexperimentalplugin.so',
   'DATA'),
  ('PyQt5/Qt/qml/QtWebChannel/qmldir',
   '/usr/lib/qt/qml/QtWebChannel/qmldir',
   'DATA'),
  ('PyQt5/Qt/qml/QtQuick/XmlListModel/qmldir',
   '/usr/lib/qt/qml/QtQuick/XmlListModel/qmldir',
   'DATA'),
  ('PyQt5/Qt/qml/Qt/labs/settings/qmldir',
   '/usr/lib/qt/qml/Qt/labs/settings/qmldir',
   'DATA'),
  ('PyQt5/Qt/qml/QtQml/qmldir', '/usr/lib/qt/qml/QtQml/qmldir', 'DATA'),
  ('PyQt5/Qt/qml/QtTest/testlogger.js',
   '/usr/lib/qt/qml/QtTest/testlogger.js',
   'DATA'),
  ('PyQt5/Qt/qml/QtSensors/qmldir', '/usr/lib/qt/qml/QtSensors/qmldir', 'DATA'),
  ('PyQt5/Qt/qml/Qt/labs/location/qmldir',
   '/usr/lib/qt/qml/Qt/labs/location/qmldir',
   'DATA'),
  ('PyQt5/Qt/qml/QtQml/plugins.qmltypes',
   '/usr/lib/qt/qml/QtQml/plugins.qmltypes',
   'DATA'),
  ('PyQt5/Qt/qml/QtQuick/XmlListModel/plugins.qmltypes',
   '/usr/lib/qt/qml/QtQuick/XmlListModel/plugins.qmltypes',
   'DATA'),
  ('PyQt5/Qt/qml/Qt/labs/folderlistmodel/libqmlfolderlistmodelplugin.so',
   '/usr/lib/qt/qml/Qt/labs/folderlistmodel/libqmlfolderlistmodelplugin.so',
   'DATA'),
  ('lib2to3/Grammar.txt', '/usr/lib/python3.7/lib2to3/Grammar.txt', 'DATA'),
  ('lib2to3/tests/data/README',
   '/usr/lib/python3.7/lib2to3/tests/data/README',
   'DATA'),
  ('PyQt5/Qt/qml/QtTest/libqmltestplugin.so',
   '/usr/lib/qt/qml/QtTest/libqmltestplugin.so',
   'DATA'),
  ('lib2to3/PatternGrammar.txt',
   '/usr/lib/python3.7/lib2to3/PatternGrammar.txt',
   'DATA'),
  ('PyQt5/Qt/qml/QtQml/Models.2/qmldir',
   '/usr/lib/qt/qml/QtQml/Models.2/qmldir',
   'DATA'),
  ('PyQt5/Qt/qml/Qt/labs/location/plugins.qmltypes',
   '/usr/lib/qt/qml/Qt/labs/location/plugins.qmltypes',
   'DATA'),
  ('PyQt5/Qt/qml/QtTest/qmldir', '/usr/lib/qt/qml/QtTest/qmldir', 'DATA'),
  ('PyQt5/Qt/qml/QtQuick/Particles.2/qmldir',
   '/usr/lib/qt/qml/QtQuick/Particles.2/qmldir',
   'DATA'),
  ('PyQt5/Qt/qml/builtins.qmltypes',
   '/usr/lib/qt/qml/builtins.qmltypes',
   'DATA'),
  ('PyQt5/Qt/qml/QtTest/SignalSpy.qml',
   '/usr/lib/qt/qml/QtTest/SignalSpy.qml',
   'DATA'),
  ('PyQt5/Qt/qml/QtSensors/plugins.qmltypes',
   '/usr/lib/qt/qml/QtSensors/plugins.qmltypes',
   'DATA'),
  ('include/python3.7m/pyconfig.h',
   '/usr/include/python3.7m/pyconfig.h',
   'DATA'),
  ('PyQt5/Qt/qml/QtPositioning/plugins.qmltypes',
   '/usr/lib/qt/qml/QtPositioning/plugins.qmltypes',
   'DATA'),
  ('PyQt5/Qt/qml/QtWebChannel/libdeclarative_webchannel.so',
   '/usr/lib/qt/qml/QtWebChannel/libdeclarative_webchannel.so',
   'DATA'),
  ('PyQt5/Qt/qml/QtQuick/Layouts/libqquicklayoutsplugin.so',
   '/usr/lib/qt/qml/QtQuick/Layouts/libqquicklayoutsplugin.so',
   'DATA'),
  ('PyQt5/Qt/qml/QtQuick/LocalStorage/plugins.qmltypes',
   '/usr/lib/qt/qml/QtQuick/LocalStorage/plugins.qmltypes',
   'DATA'),
  ('PyQt5/Qt/qml/QtQuick/Shapes/libqmlshapesplugin.so',
   '/usr/lib/qt/qml/QtQuick/Shapes/libqmlshapesplugin.so',
   'DATA'),
  ('PyQt5/Qt/qml/QtPositioning/qmldir',
   '/usr/lib/qt/qml/QtPositioning/qmldir',
   'DATA'),
  ('PyQt5/Qt/qml/QtQuick.2/libqtquick2plugin.so',
   '/usr/lib/qt/qml/QtQuick.2/libqtquick2plugin.so',
   'DATA'),
  ('PyQt5/Qt/qml/QtTest/TestCase.qml',
   '/usr/lib/qt/qml/QtTest/TestCase.qml',
   'DATA'),
  ('PyQt5/Qt/qml/QtQuick/Shapes/plugins.qmltypes',
   '/usr/lib/qt/qml/QtQuick/Shapes/plugins.qmltypes',
   'DATA'),
  ('PyQt5/Qt/qml/QtQuick/LocalStorage/qmldir',
   '/usr/lib/qt/qml/QtQuick/LocalStorage/qmldir',
   'DATA'),
  ('PyQt5/Qt/qml/Qt/labs/handlers/qmldir',
   '/usr/lib/qt/qml/Qt/labs/handlers/qmldir',
   'DATA'),
  ('PyQt5/Qt/qml/QtQuick/Window.2/libwindowplugin.so',
   '/usr/lib/qt/qml/QtQuick/Window.2/libwindowplugin.so',
   'DATA'),
  ('PyQt5/Qt/qml/QtQuick/Particles.2/libparticlesplugin.so',
   '/usr/lib/qt/qml/QtQuick/Particles.2/libparticlesplugin.so',
   'DATA'),
  ('PyQt5/Qt/qml/QtQuick/Shapes/qmldir',
   '/usr/lib/qt/qml/QtQuick/Shapes/qmldir',
   'DATA')],
 [])
