([('Redid', '/home/kenny/git/Redid/build/Redid/Redid', 'EXECUTABLE'),
  ('_struct.cpython-37m-x86_64-linux-gnu.so',
   '/usr/lib/python3.7/lib-dynload/_struct.cpython-37m-x86_64-linux-gnu.so',
   'EXTENSION'),
  ('zlib.cpython-37m-x86_64-linux-gnu.so',
   '/usr/lib/python3.7/lib-dynload/zlib.cpython-37m-x86_64-linux-gnu.so',
   'EXTENSION'),
  ('libpython3.7m.so.1.0', '/usr/lib/libpython3.7m.so.1.0', 'BINARY'),
  ('ld-linux-x86-64.so.2', '/usr/lib64/ld-linux-x86-64.so.2', 'BINARY'),
  ('PyQt5/Qt/plugins/qmltooling/libqmldbg_debugger.so',
   '/usr/lib/qt/plugins/qmltooling/libqmldbg_debugger.so',
   'BINARY'),
  ('PyQt5/Qt/plugins/qmltooling/libqmldbg_native.so',
   '/usr/lib/qt/plugins/qmltooling/libqmldbg_native.so',
   'BINARY'),
  ('PyQt5/Qt/plugins/platforminputcontexts/libcomposeplatforminputcontextplugin.so',
   '/usr/lib/qt/plugins/platforminputcontexts/libcomposeplatforminputcontextplugin.so',
   'BINARY'),
  ('PyQt5/Qt/plugins/platforms/libqminimalegl.so',
   '/usr/lib/qt/plugins/platforms/libqminimalegl.so',
   'BINARY'),
  ('PyQt5/Qt/qml/QtQuick/LocalStorage/libqmllocalstorageplugin.so',
   '/usr/lib/qt/qml/QtQuick/LocalStorage/libqmllocalstorageplugin.so',
   'BINARY'),
  ('PyQt5/Qt/plugins/xcbglintegrations/libqxcb-egl-integration.so',
   '/usr/lib/qt/plugins/xcbglintegrations/libqxcb-egl-integration.so',
   'BINARY'),
  ('PyQt5/Qt/qml/QtPositioning/libdeclarative_positioning.so',
   '/usr/lib/qt/qml/QtPositioning/libdeclarative_positioning.so',
   'BINARY'),
  ('PyQt5/Qt/plugins/qmltooling/libqmldbg_nativedebugger.so',
   '/usr/lib/qt/plugins/qmltooling/libqmldbg_nativedebugger.so',
   'BINARY'),
  ('PyQt5/Qt/qml/Qt/labs/sharedimage/libsharedimageplugin.so',
   '/usr/lib/qt/qml/Qt/labs/sharedimage/libsharedimageplugin.so',
   'BINARY'),
  ('PyQt5/Qt/plugins/qmltooling/libqmldbg_messages.so',
   '/usr/lib/qt/plugins/qmltooling/libqmldbg_messages.so',
   'BINARY'),
  ('PyQt5/Qt/plugins/position/libqtposition_positionpoll.so',
   '/usr/lib/qt/plugins/position/libqtposition_positionpoll.so',
   'BINARY'),
  ('PyQt5/Qt/qml/Qt/labs/location/liblocationlabsplugin.so',
   '/usr/lib/qt/qml/Qt/labs/location/liblocationlabsplugin.so',
   'BINARY'),
  ('PyQt5/Qt/plugins/bearer/libqconnmanbearer.so',
   '/usr/lib/qt/plugins/bearer/libqconnmanbearer.so',
   'BINARY'),
  ('PyQt5/Qt/plugins/egldeviceintegrations/libqeglfs-kms-integration.so',
   '/usr/lib/qt/plugins/egldeviceintegrations/libqeglfs-kms-integration.so',
   'BINARY'),
  ('PyQt5/Qt/qml/Qt/labs/handlers/libhandlersplugin.so',
   '/usr/lib/qt/qml/Qt/labs/handlers/libhandlersplugin.so',
   'BINARY'),
  ('PyQt5/Qt/plugins/sensorgestures/libqtsensorgestures_shakeplugin.so',
   '/usr/lib/qt/plugins/sensorgestures/libqtsensorgestures_shakeplugin.so',
   'BINARY'),
  ('PyQt5/Qt/plugins/printsupport/libcupsprintersupport.so',
   '/usr/lib/qt/plugins/printsupport/libcupsprintersupport.so',
   'BINARY'),
  ('PyQt5/Qt/plugins/platforms/libqxcb.so',
   '/usr/lib/qt/plugins/platforms/libqxcb.so',
   'BINARY'),
  ('PyQt5/Qt/plugins/iconengines/libqsvgicon.so',
   '/usr/lib/qt/plugins/iconengines/libqsvgicon.so',
   'BINARY'),
  ('PyQt5/Qt/plugins/platformthemes/libqflatpak.so',
   '/usr/lib/qt/plugins/platformthemes/libqflatpak.so',
   'BINARY'),
  ('PyQt5/Qt/qml/QtQuick/XmlListModel/libqmlxmllistmodelplugin.so',
   '/usr/lib/qt/qml/QtQuick/XmlListModel/libqmlxmllistmodelplugin.so',
   'BINARY'),
  ('PyQt5/Qt/qml/QtSensors/libdeclarative_sensors.so',
   '/usr/lib/qt/qml/QtSensors/libdeclarative_sensors.so',
   'BINARY'),
  ('PyQt5/Qt/qml/QtQml/Models.2/libmodelsplugin.so',
   '/usr/lib/qt/qml/QtQml/Models.2/libmodelsplugin.so',
   'BINARY'),
  ('PyQt5/Qt/qml/QtWebKit/libqmlwebkitplugin.so',
   '/usr/lib/qt/qml/QtWebKit/libqmlwebkitplugin.so',
   'BINARY'),
  ('PyQt5/Qt/plugins/qmltooling/libqmldbg_local.so',
   '/usr/lib/qt/plugins/qmltooling/libqmldbg_local.so',
   'BINARY'),
  ('PyQt5/Qt/qml/QtLocation/libdeclarative_location.so',
   '/usr/lib/qt/qml/QtLocation/libdeclarative_location.so',
   'BINARY'),
  ('PyQt5/Qt/qml/Qt/labs/settings/libqmlsettingsplugin.so',
   '/usr/lib/qt/qml/Qt/labs/settings/libqmlsettingsplugin.so',
   'BINARY'),
  ('PyQt5/Qt/plugins/qmltooling/libqmldbg_server.so',
   '/usr/lib/qt/plugins/qmltooling/libqmldbg_server.so',
   'BINARY'),
  ('PyQt5/Qt/plugins/sensorgestures/libqtsensorgestures_plugin.so',
   '/usr/lib/qt/plugins/sensorgestures/libqtsensorgestures_plugin.so',
   'BINARY'),
  ('PyQt5/Qt/plugins/sensors/libqtsensors_linuxsys.so',
   '/usr/lib/qt/plugins/sensors/libqtsensors_linuxsys.so',
   'BINARY'),
  ('PyQt5/Qt/qml/QtQml/StateMachine/libqtqmlstatemachine.so',
   '/usr/lib/qt/qml/QtQml/StateMachine/libqtqmlstatemachine.so',
   'BINARY'),
  ('PyQt5/Qt/qml/QtWebKit/experimental/libqmlwebkitexperimentalplugin.so',
   '/usr/lib/qt/qml/QtWebKit/experimental/libqmlwebkitexperimentalplugin.so',
   'BINARY'),
  ('PyQt5/Qt/plugins/bearer/libqnmbearer.so',
   '/usr/lib/qt/plugins/bearer/libqnmbearer.so',
   'BINARY'),
  ('PyQt5/Qt/plugins/qmltooling/libqmldbg_tcp.so',
   '/usr/lib/qt/plugins/qmltooling/libqmldbg_tcp.so',
   'BINARY'),
  ('PyQt5/Qt/plugins/platforms/libqoffscreen.so',
   '/usr/lib/qt/plugins/platforms/libqoffscreen.so',
   'BINARY'),
  ('PyQt5/Qt/plugins/qmltooling/libqmldbg_inspector.so',
   '/usr/lib/qt/plugins/qmltooling/libqmldbg_inspector.so',
   'BINARY'),
  ('PyQt5/Qt/plugins/platforms/libqlinuxfb.so',
   '/usr/lib/qt/plugins/platforms/libqlinuxfb.so',
   'BINARY'),
  ('PyQt5/Qt/qml/Qt/labs/folderlistmodel/libqmlfolderlistmodelplugin.so',
   '/usr/lib/qt/qml/Qt/labs/folderlistmodel/libqmlfolderlistmodelplugin.so',
   'BINARY'),
  ('PyQt5/Qt/plugins/qmltooling/libqmldbg_quickprofiler.so',
   '/usr/lib/qt/plugins/qmltooling/libqmldbg_quickprofiler.so',
   'BINARY'),
  ('PyQt5/Qt/qml/QtTest/libqmltestplugin.so',
   '/usr/lib/qt/qml/QtTest/libqmltestplugin.so',
   'BINARY'),
  ('PyQt5/Qt/plugins/egldeviceintegrations/libqeglfs-emu-integration.so',
   '/usr/lib/qt/plugins/egldeviceintegrations/libqeglfs-emu-integration.so',
   'BINARY'),
  ('PyQt5/Qt/plugins/xcbglintegrations/libqxcb-glx-integration.so',
   '/usr/lib/qt/plugins/xcbglintegrations/libqxcb-glx-integration.so',
   'BINARY'),
  ('PyQt5/Qt/plugins/egldeviceintegrations/libqeglfs-kms-egldevice-integration.so',
   '/usr/lib/qt/plugins/egldeviceintegrations/libqeglfs-kms-egldevice-integration.so',
   'BINARY'),
  ('PyQt5/Qt/plugins/imageformats/libqico.so',
   '/usr/lib/qt/plugins/imageformats/libqico.so',
   'BINARY'),
  ('PyQt5/Qt/plugins/position/libqtposition_geoclue.so',
   '/usr/lib/qt/plugins/position/libqtposition_geoclue.so',
   'BINARY'),
  ('PyQt5/Qt/plugins/sensors/libqtsensors_generic.so',
   '/usr/lib/qt/plugins/sensors/libqtsensors_generic.so',
   'BINARY'),
  ('PyQt5/Qt/plugins/imageformats/libqsvg.so',
   '/usr/lib/qt/plugins/imageformats/libqsvg.so',
   'BINARY'),
  ('PyQt5/Qt/qml/QtQuick/Layouts/libqquicklayoutsplugin.so',
   '/usr/lib/qt/qml/QtQuick/Layouts/libqquicklayoutsplugin.so',
   'BINARY'),
  ('PyQt5/Qt/qml/QtWebChannel/libdeclarative_webchannel.so',
   '/usr/lib/qt/qml/QtWebChannel/libdeclarative_webchannel.so',
   'BINARY'),
  ('PyQt5/Qt/plugins/qmltooling/libqmldbg_profiler.so',
   '/usr/lib/qt/plugins/qmltooling/libqmldbg_profiler.so',
   'BINARY'),
  ('PyQt5/Qt/plugins/platforms/libqminimal.so',
   '/usr/lib/qt/plugins/platforms/libqminimal.so',
   'BINARY'),
  ('PyQt5/Qt/plugins/sensors/libqtsensors_iio-sensor-proxy.so',
   '/usr/lib/qt/plugins/sensors/libqtsensors_iio-sensor-proxy.so',
   'BINARY'),
  ('PyQt5/Qt/qml/QtQuick/Shapes/libqmlshapesplugin.so',
   '/usr/lib/qt/qml/QtQuick/Shapes/libqmlshapesplugin.so',
   'BINARY'),
  ('PyQt5/Qt/qml/QtQuick.2/libqtquick2plugin.so',
   '/usr/lib/qt/qml/QtQuick.2/libqtquick2plugin.so',
   'BINARY'),
  ('PyQt5/Qt/plugins/platforminputcontexts/libibusplatforminputcontextplugin.so',
   '/usr/lib/qt/plugins/platforminputcontexts/libibusplatforminputcontextplugin.so',
   'BINARY'),
  ('PyQt5/Qt/plugins/bearer/libqgenericbearer.so',
   '/usr/lib/qt/plugins/bearer/libqgenericbearer.so',
   'BINARY'),
  ('PyQt5/Qt/plugins/platformthemes/libqgtk3.so',
   '/usr/lib/qt/plugins/platformthemes/libqgtk3.so',
   'BINARY'),
  ('PyQt5/Qt/qml/QtQuick/Window.2/libwindowplugin.so',
   '/usr/lib/qt/qml/QtQuick/Window.2/libwindowplugin.so',
   'BINARY'),
  ('PyQt5/Qt/plugins/imageformats/libqgif.so',
   '/usr/lib/qt/plugins/imageformats/libqgif.so',
   'BINARY'),
  ('PyQt5/Qt/plugins/platforms/libqvnc.so',
   '/usr/lib/qt/plugins/platforms/libqvnc.so',
   'BINARY'),
  ('PyQt5/Qt/qml/QtQuick/Particles.2/libparticlesplugin.so',
   '/usr/lib/qt/qml/QtQuick/Particles.2/libparticlesplugin.so',
   'BINARY'),
  ('PyQt5/Qt/plugins/platforms/libqeglfs.so',
   '/usr/lib/qt/plugins/platforms/libqeglfs.so',
   'BINARY'),
  ('PyQt5/Qt/plugins/imageformats/libqjpeg.so',
   '/usr/lib/qt/plugins/imageformats/libqjpeg.so',
   'BINARY'),
  ('PyQt5/Qt/plugins/egldeviceintegrations/libqeglfs-x11-integration.so',
   '/usr/lib/qt/plugins/egldeviceintegrations/libqeglfs-x11-integration.so',
   'BINARY'),
  ('_multiprocessing',
   '/usr/lib/python3.7/lib-dynload/_multiprocessing.cpython-37m-x86_64-linux-gnu.so',
   'EXTENSION'),
  ('array',
   '/usr/lib/python3.7/lib-dynload/array.cpython-37m-x86_64-linux-gnu.so',
   'EXTENSION'),
  ('_queue',
   '/usr/lib/python3.7/lib-dynload/_queue.cpython-37m-x86_64-linux-gnu.so',
   'EXTENSION'),
  ('_contextvars',
   '/usr/lib/python3.7/lib-dynload/_contextvars.cpython-37m-x86_64-linux-gnu.so',
   'EXTENSION'),
  ('_decimal',
   '/usr/lib/python3.7/lib-dynload/_decimal.cpython-37m-x86_64-linux-gnu.so',
   'EXTENSION'),
  ('mmap',
   '/usr/lib/python3.7/lib-dynload/mmap.cpython-37m-x86_64-linux-gnu.so',
   'EXTENSION'),
  ('_ctypes',
   '/usr/lib/python3.7/lib-dynload/_ctypes.cpython-37m-x86_64-linux-gnu.so',
   'EXTENSION'),
  ('resource',
   '/usr/lib/python3.7/lib-dynload/resource.cpython-37m-x86_64-linux-gnu.so',
   'EXTENSION'),
  ('_posixsubprocess',
   '/usr/lib/python3.7/lib-dynload/_posixsubprocess.cpython-37m-x86_64-linux-gnu.so',
   'EXTENSION'),
  ('_pickle',
   '/usr/lib/python3.7/lib-dynload/_pickle.cpython-37m-x86_64-linux-gnu.so',
   'EXTENSION'),
  ('_datetime',
   '/usr/lib/python3.7/lib-dynload/_datetime.cpython-37m-x86_64-linux-gnu.so',
   'EXTENSION'),
  ('_ssl',
   '/usr/lib/python3.7/lib-dynload/_ssl.cpython-37m-x86_64-linux-gnu.so',
   'EXTENSION'),
  ('_heapq',
   '/usr/lib/python3.7/lib-dynload/_heapq.cpython-37m-x86_64-linux-gnu.so',
   'EXTENSION'),
  ('_opcode',
   '/usr/lib/python3.7/lib-dynload/_opcode.cpython-37m-x86_64-linux-gnu.so',
   'EXTENSION'),
  ('readline',
   '/usr/lib/python3.7/lib-dynload/readline.cpython-37m-x86_64-linux-gnu.so',
   'EXTENSION'),
  ('pyexpat',
   '/usr/lib/python3.7/lib-dynload/pyexpat.cpython-37m-x86_64-linux-gnu.so',
   'EXTENSION'),
  ('termios',
   '/usr/lib/python3.7/lib-dynload/termios.cpython-37m-x86_64-linux-gnu.so',
   'EXTENSION'),
  ('_sha1',
   '/usr/lib/python3.7/lib-dynload/_sha1.cpython-37m-x86_64-linux-gnu.so',
   'EXTENSION'),
  ('_md5',
   '/usr/lib/python3.7/lib-dynload/_md5.cpython-37m-x86_64-linux-gnu.so',
   'EXTENSION'),
  ('_sha256',
   '/usr/lib/python3.7/lib-dynload/_sha256.cpython-37m-x86_64-linux-gnu.so',
   'EXTENSION'),
  ('_sha512',
   '/usr/lib/python3.7/lib-dynload/_sha512.cpython-37m-x86_64-linux-gnu.so',
   'EXTENSION'),
  ('_blake2',
   '/usr/lib/python3.7/lib-dynload/_blake2.cpython-37m-x86_64-linux-gnu.so',
   'EXTENSION'),
  ('_sha3',
   '/usr/lib/python3.7/lib-dynload/_sha3.cpython-37m-x86_64-linux-gnu.so',
   'EXTENSION'),
  ('_hashlib',
   '/usr/lib/python3.7/lib-dynload/_hashlib.cpython-37m-x86_64-linux-gnu.so',
   'EXTENSION'),
  ('_bisect',
   '/usr/lib/python3.7/lib-dynload/_bisect.cpython-37m-x86_64-linux-gnu.so',
   'EXTENSION'),
  ('_random',
   '/usr/lib/python3.7/lib-dynload/_random.cpython-37m-x86_64-linux-gnu.so',
   'EXTENSION'),
  ('_lzma',
   '/usr/lib/python3.7/lib-dynload/_lzma.cpython-37m-x86_64-linux-gnu.so',
   'EXTENSION'),
  ('grp',
   '/usr/lib/python3.7/lib-dynload/grp.cpython-37m-x86_64-linux-gnu.so',
   'EXTENSION'),
  ('_socket',
   '/usr/lib/python3.7/lib-dynload/_socket.cpython-37m-x86_64-linux-gnu.so',
   'EXTENSION'),
  ('_bz2',
   '/usr/lib/python3.7/lib-dynload/_bz2.cpython-37m-x86_64-linux-gnu.so',
   'EXTENSION'),
  ('_codecs_hk',
   '/usr/lib/python3.7/lib-dynload/_codecs_hk.cpython-37m-x86_64-linux-gnu.so',
   'EXTENSION'),
  ('_codecs_tw',
   '/usr/lib/python3.7/lib-dynload/_codecs_tw.cpython-37m-x86_64-linux-gnu.so',
   'EXTENSION'),
  ('_codecs_jp',
   '/usr/lib/python3.7/lib-dynload/_codecs_jp.cpython-37m-x86_64-linux-gnu.so',
   'EXTENSION'),
  ('_codecs_kr',
   '/usr/lib/python3.7/lib-dynload/_codecs_kr.cpython-37m-x86_64-linux-gnu.so',
   'EXTENSION'),
  ('_codecs_cn',
   '/usr/lib/python3.7/lib-dynload/_codecs_cn.cpython-37m-x86_64-linux-gnu.so',
   'EXTENSION'),
  ('unicodedata',
   '/usr/lib/python3.7/lib-dynload/unicodedata.cpython-37m-x86_64-linux-gnu.so',
   'EXTENSION'),
  ('zlib',
   '/usr/lib/python3.7/lib-dynload/zlib.cpython-37m-x86_64-linux-gnu.so',
   'EXTENSION'),
  ('binascii',
   '/usr/lib/python3.7/lib-dynload/binascii.cpython-37m-x86_64-linux-gnu.so',
   'EXTENSION'),
  ('_codecs_iso2022',
   '/usr/lib/python3.7/lib-dynload/_codecs_iso2022.cpython-37m-x86_64-linux-gnu.so',
   'EXTENSION'),
  ('_multibytecodec',
   '/usr/lib/python3.7/lib-dynload/_multibytecodec.cpython-37m-x86_64-linux-gnu.so',
   'EXTENSION'),
  ('select',
   '/usr/lib/python3.7/lib-dynload/select.cpython-37m-x86_64-linux-gnu.so',
   'EXTENSION'),
  ('math',
   '/usr/lib/python3.7/lib-dynload/math.cpython-37m-x86_64-linux-gnu.so',
   'EXTENSION'),
  ('_struct',
   '/usr/lib/python3.7/lib-dynload/_struct.cpython-37m-x86_64-linux-gnu.so',
   'EXTENSION'),
  ('_json',
   '/usr/lib/python3.7/lib-dynload/_json.cpython-37m-x86_64-linux-gnu.so',
   'EXTENSION'),
  ('PIL._imagingtk',
   '/usr/lib/python3.7/site-packages/PIL/_imagingtk.cpython-37m-x86_64-linux-gnu.so',
   'EXTENSION'),
  ('PIL._webp',
   '/usr/lib/python3.7/site-packages/PIL/_webp.cpython-37m-x86_64-linux-gnu.so',
   'EXTENSION'),
  ('numpy.core._multiarray_tests',
   '/usr/lib/python3.7/site-packages/numpy/core/_multiarray_tests.cpython-37m-x86_64-linux-gnu.so',
   'EXTENSION'),
  ('numpy.core.multiarray',
   '/usr/lib/python3.7/site-packages/numpy/core/multiarray.cpython-37m-x86_64-linux-gnu.so',
   'EXTENSION'),
  ('numpy.core.umath',
   '/usr/lib/python3.7/site-packages/numpy/core/umath.cpython-37m-x86_64-linux-gnu.so',
   'EXTENSION'),
  ('syslog',
   '/usr/lib/python3.7/lib-dynload/syslog.cpython-37m-x86_64-linux-gnu.so',
   'EXTENSION'),
  ('_curses',
   '/usr/lib/python3.7/lib-dynload/_curses.cpython-37m-x86_64-linux-gnu.so',
   'EXTENSION'),
  ('numpy.random.mtrand',
   '/usr/lib/python3.7/site-packages/numpy/random/mtrand.cpython-37m-x86_64-linux-gnu.so',
   'EXTENSION'),
  ('numpy.fft.fftpack_lite',
   '/usr/lib/python3.7/site-packages/numpy/fft/fftpack_lite.cpython-37m-x86_64-linux-gnu.so',
   'EXTENSION'),
  ('numpy.linalg._umath_linalg',
   '/usr/lib/python3.7/site-packages/numpy/linalg/_umath_linalg.cpython-37m-x86_64-linux-gnu.so',
   'EXTENSION'),
  ('numpy.linalg.lapack_lite',
   '/usr/lib/python3.7/site-packages/numpy/linalg/lapack_lite.cpython-37m-x86_64-linux-gnu.so',
   'EXTENSION'),
  ('PIL._imaging',
   '/usr/lib/python3.7/site-packages/PIL/_imaging.cpython-37m-x86_64-linux-gnu.so',
   'EXTENSION'),
  ('PyQt5.QtWebKitWidgets',
   '/usr/lib/python3.7/site-packages/PyQt5/QtWebKitWidgets.so',
   'EXTENSION'),
  ('PyQt5.QtQuick',
   '/usr/lib/python3.7/site-packages/PyQt5/QtQuick.so',
   'EXTENSION'),
  ('PyQt5.QtPrintSupport',
   '/usr/lib/python3.7/site-packages/PyQt5/QtPrintSupport.so',
   'EXTENSION'),
  ('PyQt5.QtNetwork',
   '/usr/lib/python3.7/site-packages/PyQt5/QtNetwork.so',
   'EXTENSION'),
  ('PyQt5.QtQml',
   '/usr/lib/python3.7/site-packages/PyQt5/QtQml.so',
   'EXTENSION'),
  ('PyQt5.QtWebChannel',
   '/usr/lib/python3.7/site-packages/PyQt5/QtWebChannel.so',
   'EXTENSION'),
  ('PyQt5.QtPositioning',
   '/usr/lib/python3.7/site-packages/PyQt5/QtPositioning.so',
   'EXTENSION'),
  ('PyQt5.QtSensors',
   '/usr/lib/python3.7/site-packages/PyQt5/QtSensors.so',
   'EXTENSION'),
  ('PyQt5.QtWebKit',
   '/usr/lib/python3.7/site-packages/PyQt5/QtWebKit.so',
   'EXTENSION'),
  ('PyQt5.QtWidgets',
   '/usr/lib/python3.7/site-packages/PyQt5/QtWidgets.so',
   'EXTENSION'),
  ('PyQt5.QtGui',
   '/usr/lib/python3.7/site-packages/PyQt5/QtGui.so',
   'EXTENSION'),
  ('PyQt5.QtCore',
   '/usr/lib/python3.7/site-packages/PyQt5/QtCore.so',
   'EXTENSION'),
  ('PyQt5.sip', '/usr/lib/python3.7/site-packages/PyQt5/sip.so', 'EXTENSION'),
  ('libgcc_s.so.1', '/usr/lib/libgcc_s.so.1', 'BINARY'),
  ('libpcre2-16.so.0', '/usr/lib/libpcre2-16.so.0', 'BINARY'),
  ('libglib-2.0.so.0', '/usr/lib/libglib-2.0.so.0', 'BINARY'),
  ('libz.so.1', '/usr/lib/libz.so.1', 'BINARY'),
  ('libQt5Qml.so.5', '/usr/lib/libQt5Qml.so.5', 'BINARY'),
  ('libdouble-conversion.so.3.0.0',
   '/usr/lib/libdouble-conversion.so.3.0.0',
   'BINARY'),
  ('liblzma.so.5', '/usr/lib/liblzma.so.5', 'BINARY'),
  ('libicuuc.so.62', '/usr/lib/libicuuc.so.62', 'BINARY'),
  ('libgpg-error.so.0', '/usr/lib/libgpg-error.so.0', 'BINARY'),
  ('liblz4.so.1', '/usr/lib/liblz4.so.1', 'BINARY'),
  ('libstdc++.so.6', '/usr/lib/libstdc++.so.6', 'BINARY'),
  ('libssl.so.1.1', '/usr/lib/libssl.so.1.1', 'BINARY'),
  ('libicudata.so.62', '/usr/lib/libicudata.so.62', 'BINARY'),
  ('libQt5Network.so.5', '/usr/lib/libQt5Network.so.5', 'BINARY'),
  ('libcrypto.so.1.1', '/usr/lib/libcrypto.so.1.1', 'BINARY'),
  ('libicui18n.so.62', '/usr/lib/libicui18n.so.62', 'BINARY'),
  ('libgcrypt.so.20', '/usr/lib/libgcrypt.so.20', 'BINARY'),
  ('libQt5Core.so.5', '/usr/lib/libQt5Core.so.5', 'BINARY'),
  ('libsystemd.so.0', '/usr/lib/libsystemd.so.0', 'BINARY'),
  ('libpcre.so.1', '/usr/lib/libpcre.so.1', 'BINARY'),
  ('libXext.so.6', '/usr/lib/libXext.so.6', 'BINARY'),
  ('libbz2.so.1.0', '/usr/lib/libbz2.so.1.0', 'BINARY'),
  ('libQt5Gui.so.5', '/usr/lib/libQt5Gui.so.5', 'BINARY'),
  ('libGLdispatch.so.0', '/usr/lib/libGLdispatch.so.0', 'BINARY'),
  ('libX11.so.6', '/usr/lib/libX11.so.6', 'BINARY'),
  ('libXdmcp.so.6', '/usr/lib/libXdmcp.so.6', 'BINARY'),
  ('libpng16.so.16', '/usr/lib/libpng16.so.16', 'BINARY'),
  ('libgraphite2.so.3', '/usr/lib/libgraphite2.so.3', 'BINARY'),
  ('libxkbcommon.so.0', '/usr/lib/libxkbcommon.so.0', 'BINARY'),
  ('libGLX.so.0', '/usr/lib/libGLX.so.0', 'BINARY'),
  ('libfreetype.so.6', '/usr/lib/libfreetype.so.6', 'BINARY'),
  ('libharfbuzz.so.0', '/usr/lib/libharfbuzz.so.0', 'BINARY'),
  ('libXau.so.6', '/usr/lib/libXau.so.6', 'BINARY'),
  ('libEGL.so.1', '/usr/lib/libEGL.so.1', 'BINARY'),
  ('libuuid.so.1', '/usr/lib/libuuid.so.1', 'BINARY'),
  ('libfontconfig.so.1', '/usr/lib/libfontconfig.so.1', 'BINARY'),
  ('libexpat.so.1', '/usr/lib/libexpat.so.1', 'BINARY'),
  ('libQt5Sql.so.5', '/usr/lib/libQt5Sql.so.5', 'BINARY'),
  ('libxcb-image.so.0', '/usr/lib/libxcb-image.so.0', 'BINARY'),
  ('libxcb-sync.so.1', '/usr/lib/libxcb-sync.so.1', 'BINARY'),
  ('libXrender.so.1', '/usr/lib/libXrender.so.1', 'BINARY'),
  ('libxcb-icccm.so.4', '/usr/lib/libxcb-icccm.so.4', 'BINARY'),
  ('libxcb-shm.so.0', '/usr/lib/libxcb-shm.so.0', 'BINARY'),
  ('libX11-xcb.so.1', '/usr/lib/libX11-xcb.so.1', 'BINARY'),
  ('libxcb-render-util.so.0', '/usr/lib/libxcb-render-util.so.0', 'BINARY'),
  ('libxcb-util.so.1', '/usr/lib/libxcb-util.so.1', 'BINARY'),
  ('libxcb-keysyms.so.1', '/usr/lib/libxcb-keysyms.so.1', 'BINARY'),
  ('libQt5XcbQpa.so.5', '/usr/lib/libQt5XcbQpa.so.5', 'BINARY'),
  ('libxcb-xinerama.so.0', '/usr/lib/libxcb-xinerama.so.0', 'BINARY'),
  ('libxkbcommon-x11.so.0', '/usr/lib/libxkbcommon-x11.so.0', 'BINARY'),
  ('libxcb-shape.so.0', '/usr/lib/libxcb-shape.so.0', 'BINARY'),
  ('libICE.so.6', '/usr/lib/libICE.so.6', 'BINARY'),
  ('libxcb-xkb.so.1', '/usr/lib/libxcb-xkb.so.1', 'BINARY'),
  ('libSM.so.6', '/usr/lib/libSM.so.6', 'BINARY'),
  ('libdbus-1.so.3', '/usr/lib/libdbus-1.so.3', 'BINARY'),
  ('libxcb-xfixes.so.0', '/usr/lib/libxcb-xfixes.so.0', 'BINARY'),
  ('libxcb-randr.so.0', '/usr/lib/libxcb-randr.so.0', 'BINARY'),
  ('libQt5DBus.so.5', '/usr/lib/libQt5DBus.so.5', 'BINARY'),
  ('libxcb-render.so.0', '/usr/lib/libxcb-render.so.0', 'BINARY'),
  ('libXi.so.6', '/usr/lib/libXi.so.6', 'BINARY'),
  ('libQt5Positioning.so.5', '/usr/lib/libQt5Positioning.so.5', 'BINARY'),
  ('libQt5Quick.so.5', '/usr/lib/libQt5Quick.so.5', 'BINARY'),
  ('libQt5PositioningQuick.so.5',
   '/usr/lib/libQt5PositioningQuick.so.5',
   'BINARY'),
  ('libQt5Location.so.5', '/usr/lib/libQt5Location.so.5', 'BINARY'),
  ('libts.so.0', '/usr/lib/libts.so.0', 'BINARY'),
  ('libdrm.so.2', '/usr/lib/libdrm.so.2', 'BINARY'),
  ('libinput.so.10', '/usr/lib/libinput.so.10', 'BINARY'),
  ('libevdev.so.2', '/usr/lib/libevdev.so.2', 'BINARY'),
  ('libgudev-1.0.so.0', '/usr/lib/libgudev-1.0.so.0', 'BINARY'),
  ('libgbm.so.1', '/usr/lib/libgbm.so.1', 'BINARY'),
  ('libQt5EglFsKmsSupport.so.5',
   '/usr/lib/libQt5EglFsKmsSupport.so.5',
   'BINARY'),
  ('libmtdev.so.1', '/usr/lib/libmtdev.so.1', 'BINARY'),
  ('libffi.so.6', '/usr/lib/libffi.so.6', 'BINARY'),
  ('libwayland-server.so.0', '/usr/lib/libwayland-server.so.0', 'BINARY'),
  ('libgobject-2.0.so.0', '/usr/lib/libgobject-2.0.so.0', 'BINARY'),
  ('libwacom.so.2', '/usr/lib/libwacom.so.2', 'BINARY'),
  ('libudev.so.1', '/usr/lib/libudev.so.1', 'BINARY'),
  ('libQt5EglFSDeviceIntegration.so.5',
   '/usr/lib/libQt5EglFSDeviceIntegration.so.5',
   'BINARY'),
  ('libQt5Sensors.so.5', '/usr/lib/libQt5Sensors.so.5', 'BINARY'),
  ('libQt5Widgets.so.5', '/usr/lib/libQt5Widgets.so.5', 'BINARY'),
  ('libkrb5.so.3', '/usr/lib/libkrb5.so.3', 'BINARY'),
  ('libgssapi_krb5.so.2', '/usr/lib/libgssapi_krb5.so.2', 'BINARY'),
  ('libidn2.so.0', '/usr/lib/libidn2.so.0', 'BINARY'),
  ('libhogweed.so.4', '/usr/lib/libhogweed.so.4', 'BINARY'),
  ('libkrb5support.so.0', '/usr/lib/libkrb5support.so.0', 'BINARY'),
  ('libnettle.so.6', '/usr/lib/libnettle.so.6', 'BINARY'),
  ('libp11-kit.so.0', '/usr/lib/libp11-kit.so.0', 'BINARY'),
  ('libcups.so.2', '/usr/lib/libcups.so.2', 'BINARY'),
  ('libcom_err.so.2', '/usr/lib/libcom_err.so.2', 'BINARY'),
  ('libtasn1.so.6', '/usr/lib/libtasn1.so.6', 'BINARY'),
  ('libunistring.so.2', '/usr/lib/libunistring.so.2', 'BINARY'),
  ('libkeyutils.so.1', '/usr/lib/libkeyutils.so.1', 'BINARY'),
  ('libgnutls.so.30', '/usr/lib/libgnutls.so.30', 'BINARY'),
  ('libavahi-common.so.3', '/usr/lib/libavahi-common.so.3', 'BINARY'),
  ('libavahi-client.so.3', '/usr/lib/libavahi-client.so.3', 'BINARY'),
  ('libgmp.so.10', '/usr/lib/libgmp.so.10', 'BINARY'),
  ('libQt5PrintSupport.so.5', '/usr/lib/libQt5PrintSupport.so.5', 'BINARY'),
  ('libk5crypto.so.3', '/usr/lib/libk5crypto.so.3', 'BINARY'),
  ('libQt5Svg.so.5', '/usr/lib/libQt5Svg.so.5', 'BINARY'),
  ('libQt5XmlPatterns.so.5', '/usr/lib/libQt5XmlPatterns.so.5', 'BINARY'),
  ('libwebp.so.7', '/usr/lib/libwebp.so.7', 'BINARY'),
  ('libelf.so.1', '/usr/lib/libelf.so.1', 'BINARY'),
  ('libgstapp-1.0.so.0', '/usr/lib/libgstapp-1.0.so.0', 'BINARY'),
  ('libgstreamer-1.0.so.0', '/usr/lib/libgstreamer-1.0.so.0', 'BINARY'),
  ('libhyphen.so.0', '/usr/lib/libhyphen.so.0', 'BINARY'),
  ('libsqlite3.so.0', '/usr/lib/libsqlite3.so.0', 'BINARY'),
  ('libQt5WebChannel.so.5', '/usr/lib/libQt5WebChannel.so.5', 'BINARY'),
  ('libgstbase-1.0.so.0', '/usr/lib/libgstbase-1.0.so.0', 'BINARY'),
  ('libxslt.so.1', '/usr/lib/libxslt.so.1', 'BINARY'),
  ('libgsttag-1.0.so.0', '/usr/lib/libgsttag-1.0.so.0', 'BINARY'),
  ('libgio-2.0.so.0', '/usr/lib/libgio-2.0.so.0', 'BINARY'),
  ('libgstfft-1.0.so.0', '/usr/lib/libgstfft-1.0.so.0', 'BINARY'),
  ('libgstpbutils-1.0.so.0', '/usr/lib/libgstpbutils-1.0.so.0', 'BINARY'),
  ('libQt5WebKit.so.5', '/usr/lib/libQt5WebKit.so.5', 'BINARY'),
  ('libgstaudio-1.0.so.0', '/usr/lib/libgstaudio-1.0.so.0', 'BINARY'),
  ('libblkid.so.1', '/usr/lib/libblkid.so.1', 'BINARY'),
  ('libunwind.so.8', '/usr/lib/libunwind.so.8', 'BINARY'),
  ('libjpeg.so.8', '/usr/lib/libjpeg.so.8', 'BINARY'),
  ('libgstvideo-1.0.so.0', '/usr/lib/libgstvideo-1.0.so.0', 'BINARY'),
  ('liborc-0.4.so.0', '/usr/lib/liborc-0.4.so.0', 'BINARY'),
  ('libgmodule-2.0.so.0', '/usr/lib/libgmodule-2.0.so.0', 'BINARY'),
  ('libdw.so.1', '/usr/lib/libdw.so.1', 'BINARY'),
  ('libxml2.so.2', '/usr/lib/libxml2.so.2', 'BINARY'),
  ('libmount.so.1', '/usr/lib/libmount.so.1', 'BINARY'),
  ('libQt5Test.so.5', '/usr/lib/libQt5Test.so.5', 'BINARY'),
  ('libQt5QuickTest.so.5', '/usr/lib/libQt5QuickTest.so.5', 'BINARY'),
  ('libxcb-glx.so.0', '/usr/lib/libxcb-glx.so.0', 'BINARY'),
  ('libwayland-egl.so.1', '/usr/lib/libwayland-egl.so.1', 'BINARY'),
  ('libatspi.so.0', '/usr/lib/libatspi.so.0', 'BINARY'),
  ('libatk-1.0.so.0', '/usr/lib/libatk-1.0.so.0', 'BINARY'),
  ('libXfixes.so.3', '/usr/lib/libXfixes.so.3', 'BINARY'),
  ('libatk-bridge-2.0.so.0', '/usr/lib/libatk-bridge-2.0.so.0', 'BINARY'),
  ('libXdamage.so.1', '/usr/lib/libXdamage.so.1', 'BINARY'),
  ('libXcomposite.so.1', '/usr/lib/libXcomposite.so.1', 'BINARY'),
  ('libgdk_pixbuf-2.0.so.0', '/usr/lib/libgdk_pixbuf-2.0.so.0', 'BINARY'),
  ('libepoxy.so.0', '/usr/lib/libepoxy.so.0', 'BINARY'),
  ('libpixman-1.so.0', '/usr/lib/libpixman-1.so.0', 'BINARY'),
  ('libfribidi.so.0', '/usr/lib/libfribidi.so.0', 'BINARY'),
  ('libpangoft2-1.0.so.0', '/usr/lib/libpangoft2-1.0.so.0', 'BINARY'),
  ('libpangocairo-1.0.so.0', '/usr/lib/libpangocairo-1.0.so.0', 'BINARY'),
  ('libcairo-gobject.so.2', '/usr/lib/libcairo-gobject.so.2', 'BINARY'),
  ('libgtk-3.so.0', '/usr/lib/libgtk-3.so.0', 'BINARY'),
  ('libcairo.so.2', '/usr/lib/libcairo.so.2', 'BINARY'),
  ('libXcursor.so.1', '/usr/lib/libXcursor.so.1', 'BINARY'),
  ('libwayland-client.so.0', '/usr/lib/libwayland-client.so.0', 'BINARY'),
  ('libwayland-cursor.so.0', '/usr/lib/libwayland-cursor.so.0', 'BINARY'),
  ('libthai.so.0', '/usr/lib/libthai.so.0', 'BINARY'),
  ('libXrandr.so.2', '/usr/lib/libXrandr.so.2', 'BINARY'),
  ('libXinerama.so.1', '/usr/lib/libXinerama.so.1', 'BINARY'),
  ('libgdk-3.so.0', '/usr/lib/libgdk-3.so.0', 'BINARY'),
  ('libdatrie.so.1', '/usr/lib/libdatrie.so.1', 'BINARY'),
  ('libpango-1.0.so.0', '/usr/lib/libpango-1.0.so.0', 'BINARY'),
  ('libQt5QuickParticles.so.5', '/usr/lib/libQt5QuickParticles.so.5', 'BINARY'),
  ('libreadline.so.7', '/usr/lib/libreadline.so.7', 'BINARY'),
  ('libncursesw.so.6', '/usr/lib/libncursesw.so.6', 'BINARY'),
  ('libwebpmux.so.3', '/usr/lib/libwebpmux.so.3', 'BINARY'),
  ('libwebpdemux.so.2', '/usr/lib/libwebpdemux.so.2', 'BINARY'),
  ('libgfortran.so.5', '/usr/lib/libgfortran.so.5', 'BINARY'),
  ('libcblas.so.3', '/usr/lib/libcblas.so.3', 'BINARY'),
  ('libblas.so.3', '/usr/lib/libblas.so.3', 'BINARY'),
  ('libquadmath.so.0', '/usr/lib/../lib/libquadmath.so.0', 'BINARY'),
  ('liblapack.so.3', '/usr/lib/liblapack.so.3', 'BINARY'),
  ('libtiff.so.5', '/usr/lib/libtiff.so.5', 'BINARY'),
  ('libopenjp2.so.7', '/usr/lib/libopenjp2.so.7', 'BINARY'),
  ('libQt5WebKitWidgets.so.5', '/usr/lib/libQt5WebKitWidgets.so.5', 'BINARY'),
  ('base_library.zip',
   '/home/kenny/git/Redid/build/Redid/base_library.zip',
   'DATA'),
  ('PyQt5/Qt/qml/QtTest/plugins.qmltypes',
   '/usr/lib/qt/qml/QtTest/plugins.qmltypes',
   'DATA'),
  ('PyQt5/Qt/qml/QtQuick/Window.2/plugins.qmltypes',
   '/usr/lib/qt/qml/QtQuick/Window.2/plugins.qmltypes',
   'DATA'),
  ('PyQt5/Qt/qml/QtWebChannel/plugins.qmltypes',
   '/usr/lib/qt/qml/QtWebChannel/plugins.qmltypes',
   'DATA'),
  ('PyQt5/Qt/qml/Qt/labs/folderlistmodel/plugins.qmltypes',
   '/usr/lib/qt/qml/Qt/labs/folderlistmodel/plugins.qmltypes',
   'DATA'),
  ('lib2to3/PatternGrammar3.7.0.final.0.pickle',
   '/usr/lib/python3.7/lib2to3/PatternGrammar3.7.0.final.0.pickle',
   'DATA'),
  ('PyQt5/Qt/qml/QtLocation/qmldir',
   '/usr/lib/qt/qml/QtLocation/qmldir',
   'DATA'),
  ('PyQt5/Qt/qml/QtQuick.2/plugins.qmltypes',
   '/usr/lib/qt/qml/QtQuick.2/plugins.qmltypes',
   'DATA'),
  ('PyQt5/Qt/qml/QtWebKit/plugins.qmltypes',
   '/usr/lib/qt/qml/QtWebKit/plugins.qmltypes',
   'DATA'),
  ('PyQt5/Qt/qml/QtQml/StateMachine/qmldir',
   '/usr/lib/qt/qml/QtQml/StateMachine/qmldir',
   'DATA'),
  ('PyQt5/Qt/qml/QtQml/Models.2/plugins.qmltypes',
   '/usr/lib/qt/qml/QtQml/Models.2/plugins.qmltypes',
   'DATA'),
  ('lib/python3.7/config-3.7m-x86_64-linux-gnu/Makefile',
   '/usr/lib/python3.7/config-3.7m-x86_64-linux-gnu/Makefile',
   'DATA'),
  ('PyQt5/Qt/qml/QtLocation/plugins.qmltypes',
   '/usr/lib/qt/qml/QtLocation/plugins.qmltypes',
   'DATA'),
  ('PyQt5/Qt/qml/Qt/labs/folderlistmodel/qmldir',
   '/usr/lib/qt/qml/Qt/labs/folderlistmodel/qmldir',
   'DATA'),
  ('PyQt5/Qt/qml/Qt/labs/settings/plugins.qmltypes',
   '/usr/lib/qt/qml/Qt/labs/settings/plugins.qmltypes',
   'DATA'),
  ('PyQt5/Qt/qml/QtWebKit/experimental/qmldir',
   '/usr/lib/qt/qml/QtWebKit/experimental/qmldir',
   'DATA'),
  ('PyQt5/Qt/qml/QtQuick/Layouts/plugins.qmltypes',
   '/usr/lib/qt/qml/QtQuick/Layouts/plugins.qmltypes',
   'DATA'),
  ('PyQt5/Qt/qml/QtQuick.2/qmldir', '/usr/lib/qt/qml/QtQuick.2/qmldir', 'DATA'),
  ('PyQt5/Qt/qml/Qt/labs/sharedimage/plugins.qmltypes',
   '/usr/lib/qt/qml/Qt/labs/sharedimage/plugins.qmltypes',
   'DATA'),
  ('PyQt5/Qt/qml/QtQuick/Layouts/qmldir',
   '/usr/lib/qt/qml/QtQuick/Layouts/qmldir',
   'DATA'),
  ('lib2to3/Grammar3.7.0.final.0.pickle',
   '/usr/lib/python3.7/lib2to3/Grammar3.7.0.final.0.pickle',
   'DATA'),
  ('PyQt5/Qt/qml/Qt/labs/sharedimage/qmldir',
   '/usr/lib/qt/qml/Qt/labs/sharedimage/qmldir',
   'DATA'),
  ('PyQt5/Qt/qml/QtQml/StateMachine/plugins.qmltypes',
   '/usr/lib/qt/qml/QtQml/StateMachine/plugins.qmltypes',
   'DATA'),
  ('PyQt5/Qt/qml/QtQuick/Window.2/qmldir',
   '/usr/lib/qt/qml/QtQuick/Window.2/qmldir',
   'DATA'),
  ('PyQt5/Qt/qml/QtQuick/Particles.2/plugins.qmltypes',
   '/usr/lib/qt/qml/QtQuick/Particles.2/plugins.qmltypes',
   'DATA'),
  ('PyQt5/Qt/qml/QtWebKit/qmldir', '/usr/lib/qt/qml/QtWebKit/qmldir', 'DATA'),
  ('PyQt5/Qt/qml/Qt/labs/handlers/plugins.qmltypes',
   '/usr/lib/qt/qml/Qt/labs/handlers/plugins.qmltypes',
   'DATA'),
  ('PyQt5/Qt/qml/QtWebChannel/qmldir',
   '/usr/lib/qt/qml/QtWebChannel/qmldir',
   'DATA'),
  ('PyQt5/Qt/qml/QtQuick/XmlListModel/qmldir',
   '/usr/lib/qt/qml/QtQuick/XmlListModel/qmldir',
   'DATA'),
  ('PyQt5/Qt/qml/Qt/labs/settings/qmldir',
   '/usr/lib/qt/qml/Qt/labs/settings/qmldir',
   'DATA'),
  ('PyQt5/Qt/qml/QtQml/qmldir', '/usr/lib/qt/qml/QtQml/qmldir', 'DATA'),
  ('PyQt5/Qt/qml/QtTest/testlogger.js',
   '/usr/lib/qt/qml/QtTest/testlogger.js',
   'DATA'),
  ('PyQt5/Qt/qml/QtSensors/qmldir', '/usr/lib/qt/qml/QtSensors/qmldir', 'DATA'),
  ('PyQt5/Qt/qml/Qt/labs/location/qmldir',
   '/usr/lib/qt/qml/Qt/labs/location/qmldir',
   'DATA'),
  ('PyQt5/Qt/qml/QtQml/plugins.qmltypes',
   '/usr/lib/qt/qml/QtQml/plugins.qmltypes',
   'DATA'),
  ('PyQt5/Qt/qml/QtQuick/XmlListModel/plugins.qmltypes',
   '/usr/lib/qt/qml/QtQuick/XmlListModel/plugins.qmltypes',
   'DATA'),
  ('lib2to3/Grammar.txt', '/usr/lib/python3.7/lib2to3/Grammar.txt', 'DATA'),
  ('lib2to3/tests/data/README',
   '/usr/lib/python3.7/lib2to3/tests/data/README',
   'DATA'),
  ('lib2to3/PatternGrammar.txt',
   '/usr/lib/python3.7/lib2to3/PatternGrammar.txt',
   'DATA'),
  ('PyQt5/Qt/qml/QtQml/Models.2/qmldir',
   '/usr/lib/qt/qml/QtQml/Models.2/qmldir',
   'DATA'),
  ('PyQt5/Qt/qml/Qt/labs/location/plugins.qmltypes',
   '/usr/lib/qt/qml/Qt/labs/location/plugins.qmltypes',
   'DATA'),
  ('PyQt5/Qt/qml/QtTest/qmldir', '/usr/lib/qt/qml/QtTest/qmldir', 'DATA'),
  ('PyQt5/Qt/qml/QtQuick/Particles.2/qmldir',
   '/usr/lib/qt/qml/QtQuick/Particles.2/qmldir',
   'DATA'),
  ('PyQt5/Qt/qml/builtins.qmltypes',
   '/usr/lib/qt/qml/builtins.qmltypes',
   'DATA'),
  ('PyQt5/Qt/qml/QtTest/SignalSpy.qml',
   '/usr/lib/qt/qml/QtTest/SignalSpy.qml',
   'DATA'),
  ('PyQt5/Qt/qml/QtSensors/plugins.qmltypes',
   '/usr/lib/qt/qml/QtSensors/plugins.qmltypes',
   'DATA'),
  ('include/python3.7m/pyconfig.h',
   '/usr/include/python3.7m/pyconfig.h',
   'DATA'),
  ('PyQt5/Qt/qml/QtPositioning/plugins.qmltypes',
   '/usr/lib/qt/qml/QtPositioning/plugins.qmltypes',
   'DATA'),
  ('PyQt5/Qt/qml/QtQuick/LocalStorage/plugins.qmltypes',
   '/usr/lib/qt/qml/QtQuick/LocalStorage/plugins.qmltypes',
   'DATA'),
  ('PyQt5/Qt/qml/QtPositioning/qmldir',
   '/usr/lib/qt/qml/QtPositioning/qmldir',
   'DATA'),
  ('PyQt5/Qt/qml/QtTest/TestCase.qml',
   '/usr/lib/qt/qml/QtTest/TestCase.qml',
   'DATA'),
  ('PyQt5/Qt/qml/QtQuick/Shapes/plugins.qmltypes',
   '/usr/lib/qt/qml/QtQuick/Shapes/plugins.qmltypes',
   'DATA'),
  ('PyQt5/Qt/qml/QtQuick/LocalStorage/qmldir',
   '/usr/lib/qt/qml/QtQuick/LocalStorage/qmldir',
   'DATA'),
  ('PyQt5/Qt/qml/Qt/labs/handlers/qmldir',
   '/usr/lib/qt/qml/Qt/labs/handlers/qmldir',
   'DATA'),
  ('PyQt5/Qt/qml/QtQuick/Shapes/qmldir',
   '/usr/lib/qt/qml/QtQuick/Shapes/qmldir',
   'DATA')],)
