('/home/kenny/git/Redid/build/Redid/PKG-00.pkg',
 {'BINARY': 1,
  'DATA': 1,
  'EXECUTABLE': 1,
  'EXTENSION': 1,
  'PYMODULE': 1,
  'PYSOURCE': 1,
  'PYZ': 0},
 [('PYZ-00.pyz', '/home/kenny/git/Redid/build/Redid/PYZ-00.pyz', 'PYZ'),
  ('_struct',
   '/usr/lib/python3.7/lib-dynload/_struct.cpython-37m-x86_64-linux-gnu.so',
   'EXTENSION'),
  ('zlib',
   '/usr/lib/python3.7/lib-dynload/zlib.cpython-37m-x86_64-linux-gnu.so',
   'EXTENSION'),
  ('struct', '/usr/lib/python3.7/struct.pyo', 'PYMODULE'),
  ('pyimod01_os_path',
   '/usr/lib/python3.7/site-packages/PyInstaller/loader/pyimod01_os_path.pyc',
   'PYMODULE'),
  ('pyimod02_archive',
   '/usr/lib/python3.7/site-packages/PyInstaller/loader/pyimod02_archive.pyc',
   'PYMODULE'),
  ('pyimod03_importers',
   '/usr/lib/python3.7/site-packages/PyInstaller/loader/pyimod03_importers.pyc',
   'PYMODULE'),
  ('pyiboot01_bootstrap',
   '/usr/lib/python3.7/site-packages/PyInstaller/loader/pyiboot01_bootstrap.py',
   'PYSOURCE'),
  ('pyi_rth_multiprocessing',
   '/home/kenny/.local/lib/python3.7/site-packages/PyInstaller/loader/rthooks/pyi_rth_multiprocessing.py',
   'PYSOURCE'),
  ('pyi_rth_pkgres',
   '/home/kenny/.local/lib/python3.7/site-packages/PyInstaller/loader/rthooks/pyi_rth_pkgres.py',
   'PYSOURCE'),
  ('pyi_rth_qt5',
   '/home/kenny/.local/lib/python3.7/site-packages/PyInstaller/loader/rthooks/pyi_rth_qt5.py',
   'PYSOURCE'),
  ('Redid', '/home/kenny/git/Redid/Redid.py', 'PYSOURCE')],
 True,
 False,
 False)
